﻿q1;q2;q3;q4;q5;q6;q7;q8;q9;q10;q11;q12;q13;q14;q15;q16;q17;q18;q19;q20;q21;q22;q23;q24;q25;q26;q27;q28;q29;q30;q31;GPF;AC;LMF;C;RFC
1;1;1;3;1;1;4;1;1;2;1;1;1;1;1;3;2;2;3;3;3;4;2;3;1;1;5;5;5;1;1;37,5;50;13;40;47
1;3;2;5;3;5;1;2;1;1;2;3;4;4;4;5;2;2;3;3;4;4;4;4;2;2;5;5;5;1;1;57,75;67;32;85;47
1;1;1;2;1;3;4;1;1;1;1;1;1;1;1;1;1;2;2;1;3;3;1;3;1;1;1;4;5;1;1;29,25;35;15;20;47
3;3;3;5;2;3;4;1;1;1;4;3;2;2;2;5;4;3;4;5;5;5;4;4;3;3;1;4;5;1;1;49,25;83;32;35;47
1;1;1;3;1;4;3;1;1;2;3;2;1;1;2;3;3;2;3;3;4;4;3;3;2;2;1;5;5;1;1;38;62;18;25;47
2;3;3;5;2;5;1;2;4;1;1;3;3;3;3;4;3;2;4;4;4;4;5;4;2;2;5;5;5;1;1;55,5;72;33;70;47
1;1;1;1;1;3;1;2;2;1;1;1;1;1;1;3;2;1;4;2;3;3;3;1;1;1;1;4;4;1;1;29,5;45;13;20;40
1;1;1;2;1;4;1;1;1;1;1;1;1;1;1;1;1;1;1;1;1;1;1;1;1;1;1;3;2;1;1;21,5;22;17;20;27
1;3;1;4;1;3;1;1;1;1;1;1;1;1;1;2;2;1;3;2;2;2;2;1;1;1;1;3;5;1;1;31,5;37;22;20;47
2;3;3;5;3;5;1;2;1;1;4;3;3;3;4;3;2;2;2;2;4;4;4;3;2;2;5;5;5;1;1;53,75;58;35;75;47
1;2;1;3;1;1;1;1;1;1;1;1;1;1;1;1;1;1;1;1;4;3;2;1;1;1;5;5;5;1;1;33,5;32;15;40;47
1;1;1;1;1;1;1;2;1;1;1;1;1;1;1;1;1;1;2;1;1;2;1;1;1;1;1;3;3;1;1;22;25;10;20;33
2;3;3;4;2;5;1;2;1;1;2;3;2;2;2;2;2;1;1;2;4;4;3;4;2;2;1;4;5;1;1;41,5;52;32;35;47
1;3;2;3;1;5;1;1;1;1;1;2;1;1;1;2;2;1;3;3;2;2;2;3;1;2;1;4;5;1;1;33,75;43;25;20;47
1;1;1;1;1;3;4;1;1;1;1;1;1;1;1;2;2;1;3;2;2;2;2;1;1;1;1;3;3;1;1;25,25;35;13;20;33
1;2;2;3;1;3;1;1;1;2;2;2;2;2;2;3;2;1;4;2;2;2;3;1;1;1;1;3;5;1;1;36;42;20;35;47
1;2;2;3;1;3;4;1;1;1;3;2;1;1;1;2;1;1;1;1;2;2;3;1;1;1;1;3;5;1;1;29,75;32;20;20;47
1;3;2;3;1;5;3;1;2;2;1;2;1;1;2;5;3;2;5;5;5;5;5;5;3;3;5;5;5;1;1;49,75;82;25;45;47
1;1;1;1;1;5;4;1;1;2;1;1;1;1;1;2;2;1;2;2;3;2;1;1;1;1;1;4;4;1;1;27,5;33;17;20;40
1;1;1;3;1;5;4;1;1;2;1;1;1;1;1;2;2;1;3;2;3;3;2;1;1;1;1;4;4;1;1;29,5;38;20;20;40
1;1;1;3;1;3;1;1;1;1;3;1;1;1;1;4;3;4;3;3;4;3;3;4;2;2;1;4;4;1;1;35,5;65;17;20;40
1;2;2;3;2;5;2;1;1;2;1;2;1;1;1;5;4;1;5;4;4;3;4;4;2;1;1;4;4;1;1;38,25;68;25;20;40
1;2;1;3;2;3;3;2;1;1;1;1;1;1;1;3;2;2;2;1;1;1;1;1;1;1;1;3;2;1;1;24,25;30;20;20;27
1;1;1;1;2;1;1;3;2;1;1;1;1;1;1;2;2;1;1;2;1;1;1;1;1;1;1;1;3;1;1;23;27;12;20;33
1;1;1;1;1;1;1;2;2;1;1;1;1;1;1;1;1;1;1;1;1;1;1;1;1;1;1;2;5;1;1;24,25;20;10;20;47
1;1;2;2;1;1;1;1;2;1;1;1;1;1;1;2;1;1;1;1;1;2;1;1;1;1;1;2;4;1;1;24,5;25;13;20;40
2;2;1;2;3;4;5;2;2;2;2;2;1;1;1;2;2;1;2;2;2;2;2;2;2;2;1;2;2;2;2;30,25;38;23;20;40
1;1;1;1;1;1;2;1;2;1;1;1;1;1;1;2;2;1;1;2;1;1;1;1;1;1;1;1;2;2;1;22;25;10;20;33
1;1;1;1;1;1;2;1;2;1;1;1;1;1;1;2;2;1;1;1;1;1;1;1;1;1;1;1;2;2;1;21,5;23;10;20;33
1;1;1;1;1;1;2;1;2;1;1;1;1;1;1;2;2;1;1;1;1;1;1;1;1;1;1;1;2;2;1;21,5;23;10;20;33
1;1;1;1;1;1;1;3;2;1;1;1;1;1;1;1;1;1;1;1;1;1;1;1;1;1;1;1;2;1;1;19,25;20;10;20;27
1;1;1;1;1;2;2;1;2;2;2;1;1;1;1;4;4;2;5;5;5;3;2;4;2;2;2;1;2;2;1;34,25;67;12;25;33
1;1;1;1;1;2;2;1;2;2;2;2;1;1;1;4;4;2;5;5;5;3;2;4;2;2;2;1;2;2;1;35;70;12;25;33
1;1;1;1;1;2;2;1;2;2;2;2;1;1;1;4;3;1;5;5;4;3;2;3;2;2;2;1;2;2;1;33,25;63;12;25;33
1;1;3;3;2;3;2;1;2;2;4;2;1;1;2;4;4;1;5;5;5;3;2;4;2;2;3;3;4;3;3;48;68;22;35;67
1;1;1;1;3;1;3;2;2;1;4;1;1;1;1;3;3;2;4;5;4;2;1;2;1;1;4;3;2;3;3;38,25;52;13;35;53
2;2;3;3;3;3;3;1;2;3;5;3;2;2;3;5;5;5;5;5;5;5;5;5;5;5;2;3;3;3;3;58;100;27;45;60
4;2;4;4;5;5;4;1;2;3;4;4;3;3;4;5;4;4;5;5;5;5;4;5;5;5;4;3;5;5;3;73;95;40;70;87
2;1;2;3;3;2;3;1;2;2;2;2;2;2;2;4;4;4;5;4;4;4;4;4;4;4;4;2;4;3;3;55,25;82;22;50;67
1;2;2;3;1;3;1;1;1;1;1;2;2;2;2;3;2;1;2;3;3;2;2;2;1;1;3;4;5;1;1;38,75;43;20;45;47
1;3;2;5;1;2;1;1;1;1;1;2;1;1;1;3;2;2;2;2;3;3;3;3;2;1;1;4;5;1;1;35;50;23;20;47
3;5;5;5;4;5;1;1;1;2;1;4;5;5;5;5;3;4;4;4;5;5;5;5;5;4;1;4;5;1;1;65,5;90;45;80;47
1;1;2;2;1;1;1;1;1;1;1;2;2;2;2;3;1;4;1;3;3;3;2;3;2;2;1;1;1;1;1;29,5;50;13;35;20
1;1;1;1;1;1;3;1;1;1;1;1;1;1;1;2;1;1;3;3;2;2;1;2;1;1;1;1;1;1;1;21,75;37;10;20;20
1;1;1;1;1;1;3;2;1;1;1;1;1;1;1;4;4;2;5;5;5;5;5;5;3;3;1;1;1;1;1;33,75;85;10;20;20
4;2;4;4;5;5;4;1;2;3;4;5;4;3;4;5;4;4;5;5;5;5;4;5;5;5;4;3;5;5;3;74,25;95;40;75;87
1;1;2;2;2;2;2;1;2;1;1;4;2;1;2;3;3;3;4;4;4;3;3;3;3;2;4;2;5;4;3;51,75;65;17;45;80
2;1;2;3;3;2;3;1;2;2;2;4;2;2;2;4;4;4;5;4;4;4;4;4;4;4;4;2;5;4;3;58,5;82;22;50;80
1;1;2;2;2;2;2;1;2;1;1;4;2;1;2;4;3;3;5;4;4;3;3;3;3;2;4;2;4;3;2;47,5;68;17;45;60
1;1;3;3;3;3;3;1;2;2;4;4;2;1;2;4;4;1;5;4;5;4;2;4;2;2;3;3;4;3;2;47,75;68;23;40;60
1;1;2;2;2;2;2;1;2;1;4;3;2;1;1;3;3;1;4;3;4;3;2;3;1;1;3;3;4;3;2;41;52;17;35;60
1;1;2;2;2;2;1;1;2;1;1;2;2;1;1;3;2;1;4;2;3;2;2;2;1;1;3;2;4;3;2;38,5;42;17;35;60
2;2;3;2;2;2;2;1;2;3;2;4;2;2;2;4;4;2;4;4;5;5;3;4;4;4;4;2;4;1;3;50,75;78;22;50;53
2;2;3;2;1;2;2;1;2;2;1;4;3;4;4;3;3;3;3;2;4;4;2;3;3;2;3;2;4;1;3;50,75;60;20;70;53
1;2;1;4;1;3;5;1;1;2;1;4;1;1;1;4;4;3;4;4;4;3;2;4;1;1;1;4;3;1;1;34;63;20;20;33
1;1;1;3;1;2;4;1;1;1;1;4;1;1;1;4;4;1;4;4;4;3;3;3;1;1;1;4;3;1;1;32;60;15;20;33
1;2;1;3;1;5;1;2;1;1;1;1;1;1;1;3;1;1;1;1;3;1;1;1;1;1;1;4;5;1;1;29;27;22;20;47
1;2;2;5;1;5;4;3;1;1;1;3;1;1;1;3;2;2;1;2;4;3;2;3;2;2;1;4;4;1;1;33,75;48;27;20;40
1;2;1;1;1;1;5;1;1;1;1;3;1;1;1;3;4;2;5;5;4;2;4;4;1;1;1;1;1;1;1;28,75;63;12;20;20
1;1;2;3;1;5;4;2;1;2;1;4;3;1;2;3;2;1;1;2;4;4;2;2;1;1;1;2;5;1;1;37,25;45;22;35;47
1;2;1;1;1;1;1;3;4;1;1;3;1;1;1;3;3;1;2;2;3;2;2;1;1;1;1;2;1;1;1;23;40;12;20;20
1;2;1;1;1;1;1;3;1;1;1;1;1;1;1;1;1;3;2;2;3;3;1;1;1;1;1;2;1;1;1;21,25;33;12;20;20
1;2;1;2;1;3;1;3;1;1;1;1;2;2;2;2;2;3;2;2;3;3;1;1;1;1;1;2;1;1;1;27,25;37;17;35;20
1;1;1;3;1;3;3;1;1;1;1;3;1;1;1;5;4;2;5;5;4;2;3;4;1;1;1;2;1;1;1;30,5;65;17;20;20
1;1;1;3;1;5;1;1;1;1;1;3;1;1;1;2;1;1;4;2;3;2;1;1;1;1;1;2;4;1;1;29,25;37;20;20;40
3;1;2;1;1;3;1;1;1;1;1;3;1;1;2;2;2;1;3;2;2;2;4;2;1;1;1;4;5;1;1;33;42;18;25;47
1;1;1;1;1;2;2;1;2;1;1;3;2;1;1;3;3;1;4;4;3;3;2;3;1;1;2;1;2;1;1;30,25;52;12;30;27
1;1;1;1;1;2;2;1;2;1;1;2;1;1;1;3;3;1;4;4;3;3;2;3;1;1;2;1;2;1;1;28,5;50;12;25;27
1;2;3;2;2;2;2;1;2;3;1;3;2;1;1;3;3;2;3;3;4;4;2;3;3;2;4;2;4;2;3;44,5;58;20;40;60
1;2;3;2;2;2;2;1;2;3;1;3;2;1;1;3;3;2;3;3;4;4;2;3;3;2;4;2;4;2;3;44,5;58;20;40;60
1;2;3;2;2;2;2;1;2;3;1;3;2;1;1;3;3;2;3;3;4;4;2;3;3;2;4;2;4;1;3;42,75;58;20;40;53
1;1;2;1;1;2;2;1;2;1;1;3;3;3;3;3;2;2;2;2;4;3;2;3;2;1;3;2;4;1;2;42;48;13;60;47
1;2;2;2;2;2;1;1;2;3;2;3;2;1;2;3;3;2;4;4;4;4;2;3;2;2;2;1;3;1;3;40;60;18;35;47
1;2;2;2;2;2;1;1;2;3;2;3;2;1;2;3;3;2;4;4;4;4;2;3;2;2;2;1;3;1;3;40;60;18;35;47
2;2;3;3;3;3;2;1;2;3;4;4;3;2;3;4;3;2;4;4;5;5;2;5;3;2;2;1;3;1;2;47,25;72;27;50;40
2;3;2;2;2;3;1;1;2;2;2;4;3;2;2;4;4;2;4;4;5;4;4;4;3;3;4;4;5;1;3;53,25;75;23;55;60
1;1;1;1;2;1;1;3;2;2;1;1;1;1;1;1;1;1;1;1;1;1;1;1;1;1;2;1;5;1;1;26;20;12;25;47
1;1;1;1;1;1;1;2;2;2;1;1;1;1;1;1;1;1;1;1;1;1;1;1;1;1;1;1;5;1;1;24,25;20;10;20;47
1;1;1;1;1;1;1;3;2;1;1;1;1;1;1;1;1;1;1;1;1;1;1;1;1;1;1;1;1;1;1;17,5;20;10;20;20
1;1;1;1;1;1;2;1;2;1;1;1;1;1;1;2;1;1;1;2;1;1;1;1;1;1;1;1;1;1;1;18,25;23;10;20;20
1;1;1;1;1;1;1;2;2;1;1;1;1;1;1;1;1;1;1;1;1;1;1;1;1;1;1;1;1;1;1;17,5;20;10;20;20
4;5;5;5;5;5;1;1;1;1;4;5;5;5;5;5;5;5;5;5;5;5;5;5;5;5;5;3;5;1;1;73,75;100;48;100;47
5;5;5;5;5;5;1;2;1;1;2;5;5;5;5;5;4;5;5;5;5;5;5;5;5;5;1;5;5;1;1;68,75;98;50;80;47
2;1;2;3;1;3;5;1;1;2;1;4;1;2;2;4;2;3;3;3;4;3;3;3;3;2;1;4;2;1;1;34,75;62;20;30;27
1;1;1;1;1;1;3;1;1;1;1;1;1;1;1;1;1;1;2;1;1;1;1;2;1;1;1;4;1;1;1;18,25;23;10;20;20
1;1;1;1;1;2;1;1;2;1;1;2;1;1;1;1;1;1;4;3;1;1;2;1;1;1;1;1;4;1;1;26;32;12;20;40
1;2;2;3;1;5;4;2;1;2;2;3;2;1;0;2;1;1;2;2;4;3;1;4;1;1;1;1;1;1;1;26,25;42;23;20;20
1;2;1;4;1;5;1;1;1;2;1;2;1;1;1;3;1;1;4;3;3;2;2;1;1;1;1;1;4;1;1;30,75;40;23;20;40
1;2;1;5;1;5;1;2;1;1;1;2;2;1;1;3;1;1;4;3;4;3;1;3;1;1;1;1;1;1;1;28,75;45;25;25;20
1;2;1;1;1;3;4;3;1;1;1;1;1;1;1;1;1;1;1;1;1;1;3;1;1;1;1;3;1;1;1;19,5;23;15;20;20
1;2;1;1;1;1;1;2;1;1;1;1;1;1;1;1;1;1;1;1;2;1;1;1;1;1;1;1;1;1;1;18,5;22;12;20;20
1;1;1;4;1;1;3;2;2;3;1;1;2;1;1;1;1;1;3;3;1;1;1;1;1;1;1;1;1;1;1;21,75;27;15;25;20
4;3;4;5;3;5;1;1;1;1;2;5;4;3;4;4;5;4;5;5;5;5;5;5;5;5;1;1;1;1;1;54,25;97;40;60;20
1;3;1;3;1;1;4;1;1;1;1;3;1;1;3;3;1;1;1;1;5;5;1;4;1;1;1;1;4;1;1;33;45;17;30;40
1;2;1;3;1;2;1;1;1;1;1;2;2;1;1;2;1;1;1;1;1;1;1;1;1;1;1;1;1;1;1;21,25;23;17;25;20
1;1;1;2;2;1;4;1;3;2;1;1;1;1;1;1;1;2;1;1;4;3;1;2;1;1;2;1;3;1;1;25,75;32;13;25;33
1;1;1;1;1;1;3;2;2;3;1;1;1;1;1;1;1;2;2;1;2;1;1;1;1;1;1;1;1;1;1;18,75;25;10;20;20
1;2;1;1;1;5;1;1;3;1;1;1;1;1;1;1;1;1;1;1;1;1;1;1;1;1;1;1;1;1;1;19,5;20;18;20;20
3;3;2;5;1;5;3;2;1;1;1;3;2;1;1;4;1;1;4;4;4;3;2;4;1;1;1;1;1;1;1;32,5;53;32;25;20
1;2;3;5;1;5;4;1;4;1;4;4;5;5;5;5;4;1;4;4;5;5;5;5;2;2;1;1;4;1;1;56,25;77;28;80;40
1;1;1;1;1;2;4;1;1;3;1;1;1;1;1;1;2;1;2;2;3;2;2;1;1;1;1;1;1;1;1;21;32;12;20;20
1;1;1;1;1;5;4;2;1;2;1;1;1;1;1;1;1;1;1;1;1;1;1;1;1;1;1;1;1;1;1;19,25;20;17;20;20
1;2;1;2;1;5;1;1;4;1;1;1;1;1;1;2;1;1;1;1;2;2;2;2;1;1;1;1;4;1;1;27;28;20;20;40
5;4;5;5;4;5;1;1;1;2;2;5;5;5;5;5;5;5;5;5;5;5;5;5;5;5;5;1;1;1;1;66,75;100;47;100;20
4;5;5;5;5;5;1;1;1;1;4;5;5;5;5;5;5;5;5;5;5;5;5;5;5;5;5;1;4;1;1;72;100;48;100;40
1;1;1;1;1;5;1;2;1;1;1;1;1;1;1;1;1;1;1;1;1;1;1;1;1;1;1;1;1;1;1;19,25;20;17;20;20
2;2;2;2;3;3;2;1;2;1;4;4;3;1;2;3;2;2;4;3;4;4;2;4;2;2;2;1;3;1;2;40,75;60;23;40;40
1;1;2;2;1;2;2;1;4;1;4;5;2;1;1;5;4;2;5;5;5;5;3;4;2;2;2;1;3;2;3;44;78;15;30;53
1;1;2;1;1;2;2;1;1;1;1;2;3;2;1;2;2;2;2;2;3;2;1;2;1;1;3;2;4;1;2;35,5;37;13;45;47
1;1;2;2;1;2;2;1;2;1;1;3;2;1;1;3;2;2;2;2;4;3;2;2;2;1;4;2;3;1;3;37,25;47;15;40;47
1;2;2;2;1;2;1;1;1;1;1;2;2;1;1;2;3;1;4;3;3;2;1;2;1;1;2;1;3;1;2;32,25;42;17;30;40
4;4;4;4;4;4;4;4;4;4;4;4;4;4;4;4;4;4;4;4;4;4;3;3;3;3;3;3;3;4;4;65,25;73;40;75;73
1;2;1;5;1;5;1;1;1;1;1;4;1;1;1;3;2;1;3;2;2;3;2;2;1;1;1;4;5;1;1;33,75;43;25;20;47
1;2;2;3;1;5;4;3;1;2;1;3;1;1;1;5;4;1;5;5;4;3;4;4;1;1;1;4;5;1;1;39,25;67;23;20;47
1;1;1;3;1;3;3;1;1;2;1;3;1;1;1;3;2;1;2;2;3;2;2;2;1;1;1;4;5;1;1;31;40;17;20;47
1;1;1;3;1;1;1;2;1;1;1;3;1;1;1;3;2;1;2;2;2;2;1;2;1;1;1;4;5;1;1;29,25;37;13;20;47
1;2;2;3;1;5;3;2;1;1;1;3;1;1;1;4;2;1;3;2;4;4;3;3;2;2;1;4;2;1;1;31,25;55;23;20;27
1;3;3;5;1;5;1;2;1;1;1;4;2;2;2;4;3;2;4;3;4;4;3;4;2;2;1;4;5;1;1;44,25;65;30;35;47
1;2;2;3;1;5;1;1;1;1;2;2;1;1;1;2;1;1;1;2;2;2;1;1;1;1;1;4;4;1;1;27,75;28;23;20;40
2;3;3;5;2;5;1;1;1;1;1;4;3;2;2;4;2;2;4;3;4;4;4;4;2;2;1;4;5;1;1;46,25;65;33;40;47
1;1;1;3;1;5;3;1;1;3;1;3;1;1;1;4;2;1;4;2;3;3;2;3;1;1;1;4;5;1;1;33,75;48;20;20;47
1;4;3;5;2;5;1;1;1;1;1;5;3;3;3;4;4;2;5;5;5;4;4;4;3;3;1;4;5;1;1;52,5;80;33;50;47
1;3;2;5;1;5;3;1;1;2;3;4;2;2;2;5;4;3;5;5;4;4;4;4;2;2;1;4;5;1;1;46,75;77;28;35;47
1;1;1;3;1;3;4;2;1;1;1;3;1;1;1;4;2;3;3;2;3;3;3;4;2;2;1;4;2;1;1;30,25;57;17;20;27
2;2;1;2;2;2;4;1;1;3;2;5;2;1;2;4;4;4;5;4;5;5;4;5;5;5;1;1;3;1;1;43,25;92;18;30;33
1;1;1;1;2;1;2;1;1;2;1;4;1;1;1;2;3;2;4;4;4;4;2;4;3;3;1;1;2;1;1;31;65;12;20;27
2;2;2;2;3;2;4;2;1;1;3;4;2;3;3;3;3;3;4;4;4;3;4;3;3;3;1;1;3;1;1;42;68;22;45;33
1;1;2;1;2;2;2;2;1;1;1;3;1;1;1;3;2;2;4;3;4;3;1;3;2;1;1;1;3;1;1;30;52;15;20;33
1;1;2;1;1;3;5;3;1;1;1;2;1;1;1;2;1;1;1;1;3;1;1;1;1;1;1;3;3;1;1;23,75;27;15;20;33
1;3;3;2;2;4;1;2;1;1;1;3;2;2;1;4;3;2;4;2;4;3;4;3;2;1;2;3;5;1;1;41,25;58;25;35;47
3;2;4;4;3;4;3;3;2;2;1;2;2;2;3;3;3;4;3;2;3;2;2;3;3;3;4;4;3;3;2;49;55;33;55;53
1;1;1;1;1;1;1;1;1;1;2;2;1;1;1;2;2;1;4;2;2;2;2;1;1;1;1;5;5;1;1;28,5;37;10;20;47
1;1;1;1;1;1;1;2;2;1;1;1;1;1;1;1;1;1;1;1;1;1;1;1;1;1;1;2;2;1;1;19,25;20;10;20;27
1;2;2;2;1;2;1;1;2;1;1;1;1;1;1;2;2;1;1;2;1;1;1;1;1;1;1;1;1;1;1;20,5;25;17;20;20
1;2;2;2;1;2;1;1;2;1;1;1;1;1;1;1;1;1;1;2;1;1;1;1;1;1;1;1;2;1;1;21,5;22;17;20;27
1;1;1;1;1;1;2;1;2;1;2;1;1;1;1;2;2;1;1;2;1;1;1;1;1;1;2;2;1;1;1;20;25;10;25;20
1;2;1;3;1;5;3;2;1;2;1;2;1;1;1;2;2;1;4;2;2;1;1;1;1;1;1;4;3;1;1;27;33;22;20;33
1;3;3;2;2;4;4;2;1;1;1;3;2;2;1;4;3;2;4;2;4;3;3;3;2;1;2;3;5;1;1;41;57;25;35;47
1;1;2;3;2;4;4;2;1;1;1;4;2;2;1;4;4;3;5;5;5;4;5;4;3;2;1;3;2;1;1;39,75;80;22;30;27
1;3;2;3;1;3;5;3;1;1;2;2;2;1;1;2;3;3;3;3;2;2;1;1;1;1;1;2;1;1;1;26,75;40;22;25;20
1;2;1;3;1;5;5;4;1;1;2;2;1;1;1;1;1;1;3;2;3;2;2;2;1;1;1;4;5;1;1;31;35;22;20;47
2;3;2;1;1;5;4;3;1;1;2;1;2;1;1;1;1;3;1;1;3;4;1;3;1;1;3;4;1;1;1;28,25;35;23;35;20
1;2;2;2;1;2;1;1;1;1;1;2;2;1;1;2;2;1;3;2;2;1;1;1;1;1;2;1;3;1;2;29,75;32;17;30;40
1;1;1;2;1;5;5;1;1;1;1;4;1;1;1;4;3;1;5;5;4;2;2;4;1;1;1;4;4;1;1;34,5;60;18;20;40
1;2;2;2;2;3;2;1;1;1;1;3;2;1;2;2;1;1;1;1;3;2;2;3;1;1;2;1;3;1;1;30,75;35;20;35;33
1;1;1;1;1;1;1;1;1;1;1;1;1;1;1;1;1;1;1;1;1;1;4;1;1;1;1;4;5;1;1;25,5;25;10;20;47
1;1;1;1;1;1;1;1;1;2;1;1;1;1;1;1;1;1;1;1;1;1;1;1;1;1;3;4;1;1;1;20;20;10;30;20
1;1;1;1;1;1;5;1;1;1;1;1;1;1;1;1;1;1;1;1;1;1;1;1;1;1;3;5;5;1;1;26,75;20;10;30;47
1;3;2;3;2;5;1;1;1;4;1;2;2;1;1;3;4;1;4;3;4;4;2;4;1;1;1;4;3;1;1;35;55;27;25;33
1;1;1;3;1;1;1;1;1;2;1;2;1;1;1;4;3;1;4;3;2;2;3;1;1;1;1;4;3;1;1;27,75;45;13;20;33
1;2;1;3;1;5;4;1;1;1;1;2;1;1;1;1;2;1;3;3;3;1;1;1;1;1;1;4;5;1;1;30,5;33;22;20;47
1;2;1;1;1;5;4;1;1;1;3;2;1;1;1;3;2;1;3;2;1;2;1;1;1;1;1;4;4;1;1;27,75;33;18;20;40
1;1;1;5;1;4;4;1;1;1;4;2;1;1;1;2;1;1;1;1;1;1;1;1;1;1;1;3;2;1;1;23;23;22;20;27
1;3;1;1;1;2;1;1;1;1;2;1;2;1;1;1;1;1;2;2;1;1;1;1;1;1;1;3;1;1;1;20,75;23;15;25;20
1;2;2;3;1;5;3;2;1;1;1;3;2;1;1;3;2;1;3;2;2;2;2;2;1;1;1;4;3;1;1;30,25;40;23;25;33
1;1;1;1;1;5;1;1;1;1;1;3;1;1;1;2;1;1;4;2;3;2;1;1;1;1;1;2;4;1;1;28,5;37;17;20;40
1;1;1;1;1;1;1;2;1;1;1;2;1;1;1;3;1;1;3;3;1;1;1;1;1;1;1;5;2;1;1;22,25;32;10;20;27
1;1;1;5;1;5;3;1;1;1;1;2;1;1;1;3;1;1;3;2;2;1;1;1;1;1;1;5;2;1;1;25,5;32;23;20;27
1;1;1;3;1;5;4;1;1;1;2;1;1;1;1;1;1;1;1;1;1;1;1;1;1;1;1;3;2;1;1;21,75;20;20;20;27
1;1;1;2;1;5;1;2;1;1;1;2;1;1;1;3;1;1;4;1;3;2;1;1;1;1;2;5;4;1;1;29,5;35;18;25;40
1;2;1;2;1;3;1;1;1;1;1;2;1;1;1;1;1;1;1;1;2;2;1;1;1;1;1;3;5;1;1;27,25;25;17;20;47
1;2;2;3;1;3;4;2;1;1;1;2;1;1;1;3;2;1;3;2;3;2;1;1;1;1;1;3;2;1;1;26;37;20;20;27
1;2;2;3;1;1;3;1;1;1;1;2;1;1;1;1;1;1;2;1;3;2;1;1;1;1;1;2;5;1;1;28;28;17;20;47
1;1;1;3;2;5;4;5;1;1;1;2;1;1;1;2;1;1;1;1;3;2;1;1;1;1;1;3;5;1;1;29,25;28;22;20;47
1;1;1;3;1;1;1;2;1;1;1;2;1;1;1;4;2;1;2;2;3;3;2;3;1;1;1;4;3;1;1;27,25;43;13;20;33
1;1;2;5;1;5;1;2;1;1;1;3;2;2;2;3;2;2;2;2;3;2;2;3;1;1;1;3;5;1;1;37,5;43;25;35;47
1;3;2;4;2;5;4;2;1;1;1;4;2;2;2;4;3;1;4;3;4;4;2;3;2;2;1;4;4;1;1;40,75;60;28;35;40
1;2;1;3;1;3;4;2;1;1;1;2;1;1;1;4;2;1;2;2;3;2;1;1;1;1;1;2;2;1;1;25,5;37;18;20;27
1;1;1;1;1;3;4;2;1;1;1;2;1;1;1;4;2;1;2;2;3;3;1;2;1;1;1;2;3;1;1;26,5;40;13;20;33
1;1;1;3;1;1;4;2;1;2;1;2;1;1;1;1;1;1;2;2;1;1;1;1;1;1;3;2;1;1;1;22;25;13;30;20
1;1;1;3;1;3;3;2;1;1;1;3;2;1;1;4;2;1;4;2;3;3;1;1;1;1;1;3;2;1;1;28;43;17;25;27
1;1;1;2;1;5;2;2;1;2;2;3;1;1;1;2;2;1;1;2;3;3;2;1;1;1;1;3;3;1;1;27;37;18;20;33
1;2;1;3;1;5;1;2;4;1;1;2;2;1;1;2;2;1;2;2;1;1;1;1;1;1;1;3;3;1;1;27;28;22;25;33
1;3;3;5;1;3;3;3;1;1;1;3;2;1;1;4;2;1;3;2;4;3;2;4;2;2;1;3;4;1;1;36,25;53;27;25;40
1;2;2;5;1;5;4;3;1;1;1;3;2;1;1;4;2;3;3;2;4;4;1;4;2;2;1;2;2;1;1;34;57;27;25;27
1;1;1;3;1;3;3;3;1;1;1;1;1;1;1;2;1;1;1;1;3;1;1;3;1;1;1;2;5;1;1;28;28;17;20;47
1;1;1;1;1;3;1;3;2;1;1;3;1;1;1;3;2;1;3;1;4;1;2;2;1;1;1;4;4;1;1;28,25;40;13;20;40
1;1;1;3;1;5;4;3;1;2;1;4;1;1;1;2;4;2;4;5;5;3;3;5;2;2;1;4;4;1;1;37;68;20;20;40
1;1;1;3;2;1;3;2;1;1;1;3;1;1;1;4;3;2;3;2;4;3;2;3;1;1;4;5;5;1;1;37,25;52;15;35;47
1;2;1;3;1;5;4;3;2;1;1;4;2;1;1;3;2;3;3;2;3;2;1;3;1;1;1;2;2;1;1;30,25;47;22;25;27
1;1;1;3;1;3;3;3;1;1;1;4;2;1;1;3;2;2;4;2;1;1;1;1;1;1;1;3;3;1;1;28,25;38;17;25;33
1;2;1;3;1;3;3;3;1;1;1;2;1;1;1;2;2;1;3;1;1;1;1;1;1;1;2;3;2;1;1;24,5;28;18;25;27
2;2;2;3;3;5;4;1;1;1;2;5;2;1;1;5;3;3;4;4;4;4;5;5;2;2;1;4;5;1;1;44,25;77;28;25;47
2;3;2;3;3;3;4;2;1;1;4;5;2;2;3;5;4;4;3;3;5;5;5;5;4;4;1;4;5;1;1;50,25;87;27;40;47
1;2;1;3;1;1;4;2;1;1;1;3;2;1;1;4;3;2;4;2;4;3;3;4;2;1;1;5;5;1;1;36,25;58;15;25;47
2;3;2;5;2;5;1;1;1;1;1;5;3;3;3;5;4;3;4;4;5;5;5;5;3;3;1;5;5;1;1;53,5;85;32;50;47
1;1;1;3;1;3;4;2;1;1;3;3;1;1;1;3;2;1;3;2;3;3;2;3;1;1;1;4;3;5;5;42,25;45;17;20;87
1;1;1;3;3;4;4;2;1;1;1;4;1;1;1;3;3;2;4;3;4;4;4;3;2;2;1;5;5;1;1;38;63;22;20;47
1;2;1;1;1;3;4;3;1;2;1;4;1;1;1;4;2;1;4;2;4;3;3;4;2;2;1;5;5;1;1;35;58;15;20;47
1;1;1;3;1;3;3;3;1;1;1;3;1;1;1;2;2;1;4;2;1;1;1;1;1;1;1;5;3;1;1;25,75;33;17;20;33
1;2;2;2;1;5;3;1;1;2;2;4;2;1;1;3;2;1;3;3;3;3;3;3;1;1;1;4;5;1;1;36;50;22;25;47
1;2;1;3;1;5;5;1;1;1;1;4;1;1;1;4;3;1;3;3;5;4;1;4;1;2;1;5;4;1;1;35;58;22;20;40
1;1;1;1;1;1;999;4;1;2;1;1;1;1;1;3;1;1;1;1;1;1;1;1;1;1;2;3;1;1;1;19,5;23;10;25;20
2;3;1;3;1;1;1;1;1;1;1;3;1;1;1;3;1;1;1;1;1;1;2;1;1;1;3;2;2;1;1;25,75;28;18;30;27
1;4;4;3;1;4;2;1;1;1;1;5;1;1;4;4;3;3;5;4;5;5;5;5;3;3;1;1;1;1;1;41,5;83;28;35;20
1;4;3;3;2;4;1;1;1;1;1;5;3;2;4;3;3;2;5;4;5;5;5;5;3;3;1;1;4;1;1;49,5;80;28;50;40
1;3;4;4;3;4;1;1;1;1;1;5;5;5;4;3;4;2;5;4;5;5;5;5;3;3;1;1;3;1;1;55,5;82;32;75;33
1;4;4;4;3;4;1;1;1;1;1;5;3;2;4;3;4;2;5;4;5;5;5;5;3;3;1;1;3;1;1;49,5;82;33;50;33
1;4;4;4;4;3;1;1;1;1;1;5;3;2;4;3;4;2;5;4;5;5;5;5;3;3;1;1;3;1;1;49,5;82;33;50;33
5;5;5;5;5;5;999;2;1;2;1;5;5;5;5;5;5;5;5;5;5;5;5;5;5;5;5;4;5;1;1;74,25;100;50;100;47
3;4;4;1;2;5;2;1;1;1;1;5;1;1;3;2;3;2;4;4;4;3;4;3;2;2;2;4;4;1;1;42,5;63;32;35;40
1;3;2;1;1;3;1;1;1;1;1;4;2;3;3;2;2;3;2;2;4;3;2;4;2;2;1;4;3;1;1;37,25;53;18;45;33
3;5;5;5;4;5;1;1;1;2;1;5;4;3;5;5;3;3;4;4;5;5;3;5;3;2;1;4;5;1;1;58,75;78;45;65;47
4;5;5;5;4;5;1;1;1;2;1;5;4;3;4;5;5;3;5;5;5;5;5;5;5;5;5;4;5;1;1;67,75;97;47;80;47
3;5;4;5;3;4;999;1;1;2;1;5;4;3;4;4;3;3;4;4;5;5;3;4;4;4;1;4;5;1;1;56,75;80;40;60;47
2;3;3;3;2;5;1;1;1;1;1;5;2;2;2;5;4;2;5;5;4;4;4;5;2;2;1;4;2;1;1;42,5;78;30;35;27
1;2;2;1;1;1;4;1;1;1;1;2;1;1;1;5;4;1;5;5;4;3;2;4;1;1;1;4;2;1;1;30,5;62;13;20;27
1;3;3;3;1;2;1;1;1;2;1;4;2;1;2;4;3;2;4;3;4;3;4;4;2;1;1;3;3;1;1;37;63;22;30;33
4;5;5;5;5;5;999;1;1;2;4;5;5;4;5;5;4;5;5;5;5;5;5;5;5;5;5;4;5;1;1;72;98;48;95;47
1;2;1;3;1;5;1;1;1;1;1;2;1;1;1;3;1;1;4;3;4;2;1;3;1;1;1;4;5;1;1;33;43;22;20;47
1;1;1;1;1;1;4;2;1;3;4;4;1;1;1;4;3;2;5;5;3;2;2;2;1;1;1;4;2;1;1;28,5;57;10;20;27
1;2;2;1;1;3;4;1;1;2;1;4;2;2;2;5;4;3;4;4;4;4;4;4;3;2;1;4;5;1;1;43,5;75;17;35;47
1;3;2;3;1;5;4;1;1;1;2;3;2;2;2;2;1;1;1;2;2;2;1;1;1;2;1;4;4;1;1;33;32;25;35;40
1;3;1;3;1;5;1;2;1;1;1;2;1;1;1;1;2;1;1;2;2;2;1;1;1;1;1;4;4;1;1;27,75;28;23;20;40
1;3;2;2;1;2;1;2;1;1;1;3;2;1;1;3;4;1;4;3;4;4;3;3;1;1;2;3;1;2;1;33;57;18;30;27
2;4;3;3;1;5;1;1;1;2;4;5;2;2;2;5;4;3;5;5;5;5;5;5;5;4;5;5;5;1;1;56,25;93;30;55;47
1;2;2;1;1;2;4;1;1;2;2;5;2;2;2;5;4;4;4;4;5;4;4;5;3;2;1;3;4;1;1;43;82;15;35;40
1;2;2;3;1;3;1;2;1;2;2;4;2;2;2;5;4;2;5;4;5;4;3;5;4;3;1;4;4;1;1;43,75;80;20;35;40
2;2;2;5;2;5;1;1;1;1;1;3;1;2;1;1;2;1;1;2;1;2;1;2;1;2;1;4;5;1;1;33,5;32;30;25;47
1;2;1;1;1;5;1;1;1;1;1;2;1;1;1;1;1;1;1;1;3;1;1;1;1;1;1;4;5;1;1;27,5;25;18;20;47
1;1;1;3;1;1;1;1;1;1;1;3;1;1;1;3;1;1;2;2;4;2;1;3;1;1;1;3;3;1;1;26,5;40;13;20;33
1;1;1;3;1;5;1;1;1;1;2;3;1;1;1;3;2;2;4;2;3;2;2;1;1;1;1;5;4;1;1;30,75;43;20;20;40
1;2;2;3;2;5;5;1;1;1;3;4;1;1;1;4;3;1;5;5;5;4;3;5;2;2;1;4;5;1;1;41;72;25;20;47
1;2;2;3;1;3;2;1;1;1;3;3;1;1;1;2;2;2;2;2;2;1;1;1;1;1;1;3;4;1;1;28,25;33;20;20;40
1;3;1;2;1;4;1;1;1;2;1;2;1;1;1;3;3;1;3;3;3;3;4;3;1;1;1;3;3;1;1;30,75;50;20;20;33
1;2;2;3;1;3;4;1;1;1;1;3;2;1;1;3;2;2;4;2;3;3;2;2;1;1;1;4;5;1;1;34,75;47;20;25;47
1;4;3;4;3;5;1;1;1;1;1;4;2;2;1;4;4;1;4;4;4;4;1;3;1;1;1;3;3;1;1;38,5;58;33;30;33
1;1;1;1;1;5;1;1;1;2;1;3;1;3;4;3;4;3;3;4;4;4;3;4;1;1;1;3;3;1;1;39,25;62;17;45;33
1;2;3;3;1;3;1;1;1;2;4;4;2;2;2;4;3;2;4;3;4;4;3;4;2;2;1;5;5;1;1;42,25;65;22;35;47
1;1;1;5;1;1;1;4;1;1;1;3;1;1;1;3;3;2;4;3;4;2;1;1;1;1;1;3;2;1;1;27,75;47;17;20;27
5;5;5;5;5;5;999;1;1;2;1;5;5;5;5;5;5;5;5;5;5;5;5;5;5;5;5;4;5;1;1;74,25;100;50;100;47
1;4;3;5;2;5;4;1;1;2;1;5;4;4;5;5;5;4;5;5;5;5;5;5;5;4;1;4;5;1;1;61,75;97;33;70;47
1;3;3;5;1;5;1;1;1;2;1;5;3;3;4;5;4;4;5;5;5;5;5;5;5;3;1;4;5;1;1;56,25;93;30;55;47
1;2;1;1;1;5;1;1;1;1;1;4;1;1;1;4;4;1;5;4;4;3;2;4;2;1;1;4;4;1;1;35,25;63;18;20;40
1;4;4;5;3;5;1;1;1;2;1;5;4;3;4;5;4;2;5;4;5;5;5;5;2;2;1;5;5;1;1;56,5;82;37;60;47
5;5;5;5;5;5;999;1;1;2;1;5;5;5;5;5;4;5;5;5;5;5;5;5;5;5;2;4;5;1;1;70;98;50;85;47
1;2;2;4;1;5;1;1;1;2;1;2;2;1;1;1;1;1;1;1;3;2;1;1;1;1;1;3;5;1;1;31;27;25;25;47
1;1;1;1;1;1;1;1;1;1;1;2;1;1;1;1;2;1;3;2;3;2;1;1;1;1;1;4;2;1;1;22,5;33;10;20;27
1;4;3;5;3;5;4;1;1;1;1;5;3;2;3;5;4;3;4;4;5;5;5;5;3;2;5;4;5;1;1;57,5;83;35;65;47
2;5;5;5;5;5;999;1;1;2;1;5;5;4;5;5;5;2;5;5;5;5;5;5;2;2;5;4;5;1;1;68;85;45;95;47
1;1;1;3;1;1;4;1;1;2;1;2;1;1;1;2;1;1;3;2;2;1;1;1;1;1;1;4;4;1;1;25,75;30;13;20;40
2;2;2;1;1;5;4;1;1;1;1;4;1;1;1;5;4;4;5;5;5;5;5;5;3;4;1;4;3;1;1;41,25;90;22;20;33
1;2;1;3;1;1;5;1;2;2;2;3;1;1;1;4;3;1;4;3;4;2;1;3;1;1;1;4;5;1;1;33;50;15;20;47
1;3;3;3;1;3;4;2;1;1;1;5;2;2;2;5;4;5;5;5;5;4;5;5;3;2;1;4;3;1;1;44,75;88;23;35;33
2;3;2;3;1;5;4;1;1;1;1;3;2;1;1;3;2;1;3;3;3;2;2;3;1;1;3;4;4;1;1;36,75;45;27;35;40
1;2;1;3;1;1;3;1;1;1;1;3;1;1;1;2;2;2;3;2;3;2;2;2;1;1;1;3;2;1;1;26;42;15;20;27
1;2;2;3;1;5;1;1;1;1;1;4;2;1;1;2;1;1;1;2;3;2;1;2;1;1;1;4;5;1;1;32,5;35;23;25;47
1;1;1;1;1;1;1;4;1;1;1;3;1;1;1;1;1;1;2;2;4;1;2;1;1;1;1;1;1;1;1;20,75;33;10;20;20
3;3;3;3;3;5;3;2;4;1;2;5;2;2;2;3;3;2;4;3;4;3;2;3;2;2;3;4;5;1;1;46,25;60;33;45;47
1;1;3;3;2;2;1;2;2;1;1;1;1;1;1;1;1;1;1;1;1;1;1;1;1;1;3;3;1;1;1;22,5;20;20;30;20
2;1;1;2;1;1;4;2;1;1;1;3;1;1;1;3;3;1;4;4;4;4;3;3;1;1;3;5;4;1;1;35;57;13;30;40
2;2;1;2;1;1;4;1;2;3;1;4;1;1;1;2;2;2;1;2;2;2;2;2;2;1;1;1;1;1;1;23,75;40;15;20;20
1;1;1;1;1;1;3;2;1;1;1;2;1;1;1;1;1;1;1;1;1;1;1;1;1;1;1;1;1;1;1;18;22;10;20;20
1;1;1;1;2;2;3;3;1;1;1;1;1;1;1;1;1;1;2;1;1;1;1;1;1;1;1;2;2;1;1;20,5;22;13;20;27
1;1;1;1;1;1;4;1;1;1;1;1;1;1;1;1;1;1;1;1;1;1;1;1;1;1;3;5;5;1;1;26,75;20;10;30;47
1;1;2;3;3;2;1;1;1;1;1;1;2;1;2;1;1;1;1;1;1;1;1;1;1;1;1;1;4;1;1;27,5;20;20;30;40
1;1;1;1;1;2;3;1;1;1;1;4;1;1;1;2;2;2;4;4;4;4;2;4;2;1;1;1;1;1;1;27,5;58;12;20;20
1;1;1;1;1;1;4;2;1;1;1;1;1;1;1;2;1;1;1;1;1;1;1;1;1;1;1;2;2;1;1;19,75;22;10;20;27
2;2;2;1;1;1;3;3;2;3;1;4;1;1;1;1;1;1;2;1;3;3;1;3;1;1;2;4;1;1;1;24,25;37;15;25;20
1;1;1;1;1;2;3;1;1;1;1;2;1;1;1;1;1;1;1;1;1;1;1;1;1;1;1;1;1;1;1;18,5;22;12;20;20
1;1;1;2;1;1;3;2;1;1;1;1;1;1;1;1;1;1;1;1;1;1;1;1;1;1;1;1;2;1;1;19,75;20;12;20;27
1;1;1;1;1;1;1;1;1;1;1;1;1;1;1;1;1;1;1;1;1;1;1;1;1;1;1;1;3;2;1;22,5;20;10;20;40
1;1;1;2;1;1;2;2;1;2;1;2;1;1;1;1;1;1;1;1;1;1;1;1;1;1;1;4;4;1;1;23,5;22;12;20;40
2;2;2;1;2;1;4;2;1;1;1;3;2;1;1;4;4;2;3;1;4;4;2;4;2;1;1;1;3;2;1;34,75;57;17;25;40
1;1;1;1;1;1;4;2;2;2;1;5;1;1;1;5;5;3;5;5;5;5;2;5;2;2;1;1;2;2;1;36,25;82;10;20;33
2;2;2;2;1;2;4;2;1;2;1;3;1;1;1;1;1;1;1;1;3;3;2;2;1;1;1;1;4;1;1;27,75;33;18;20;40
2;3;2;4;2;2;4;2;2;3;1;4;3;1;3;3;3;2;4;3;4;3;3;3;2;2;1;4;4;1;1;41,25;60;25;40;40
2;2;3;3;2;3;3;2;1;1;1;2;2;2;3;2;3;2;3;3;2;2;2;2;1;1;1;4;2;1;1;33,5;42;25;40;27
3;3;2;3;2;3;4;2;2;2;1;4;3;2;3;4;4;1;5;5;4;4;4;4;2;2;1;1;4;2;1;47,75;72;27;45;47
2;2;2;2;2;2;3;3;1;3;1;5;2;1;1;4;4;1;5;5;5;4;5;5;2;2;1;4;2;2;1;39;78;20;25;33
1;1;1;1;1;1;3;2;1;1;1;2;1;1;1;2;1;1;2;1;1;1;1;1;1;1;1;1;5;1;1;25,5;25;10;20;47
2;2;2;2;3;3;4;2;1;3;4;5;2;2;2;5;4;2;5;5;5;5;5;5;2;2;1;1;4;2;2;48,5;83;23;35;53
1;1;1;1;1;1;1;2;1;1;1;4;1;1;1;2;2;1;3;2;3;2;3;2;1;1;1;1;2;2;1;26,5;43;10;20;33
2;4;2;3;2;3;2;2;1;1;4;5;2;1;2;5;5;1;5;5;5;4;3;4;2;2;3;5;5;2;1;49,25;77;27;40;53
2;1;2;4;2;3;3;3;1;4;1;5;2;2;2;5;4;2;5;5;5;4;5;5;2;2;2;2;3;1;1;44,5;82;23;40;33
4;4;4;3;3;2;2;2;2;2;1;3;2;2;2;2;2;1;3;3;4;4;3;3;1;1;2;4;3;2;1;40,75;50;33;40;40
1;2;1;2;2;2;1;2;3;2;1;4;2;1;1;4;4;1;4;4;5;4;4;4;1;2;1;1;5;1;1;39,25;68;17;25;47
2;2;2;3;2;2;3;3;3;1;1;2;2;2;1;1;1;1;1;1;2;2;1;2;2;1;1;1;3;1;1;28,25;28;22;30;33
2;2;3;3;2;3;1;2;1;1;1;4;2;1;2;2;2;1;2;2;5;4;3;4;1;1;3;4;5;2;1;42,5;52;25;40;53
2;2;2;2;2;1;3;3;1;4;1;3;2;2;2;3;2;1;2;1;2;2;2;1;1;1;2;4;2;1;1;30;35;18;40;27
2;2;2;3;2;3;1;2;1;1;1;4;2;1;2;4;4;2;4;4;4;4;3;4;2;2;1;1;2;1;1;37;68;23;30;27
2;2;2;3;2;3;3;3;1;3;1;2;2;2;2;2;2;2;1;1;1;1;2;1;1;1;2;3;2;1;1;29,5;28;23;40;27
1;4;1;2;2;3;3;2;1;1;1;3;2;1;2;2;2;1;1;3;3;2;2;2;1;1;1;1;5;1;1;34,25;38;22;30;47
2;2;2;3;2;2;2;3;1;2;1;4;2;2;2;3;2;1;4;4;4;4;4;3;2;2;1;5;2;1;1;36,5;62;22;35;27
1;1;1;1;2;2;2;2;1;1;4;5;2;1;1;5;5;1;5;5;5;5;5;5;2;2;1;1;4;1;1;40,25;83;13;25;40
4;3;3;4;3;4;4;1;2;3;4;5;3;3;3;4;3;1;4;4;5;5;5;5;3;3;3;5;3;3;1;55;78;35;60;47
2;1;1;1;1;1;4;2;2;3;1;2;1;1;1;2;2;1;2;2;2;1;1;2;1;1;2;1;1;2;1;24;32;12;25;27
2;2;2;3;2;3;4;4;1;3;4;5;2;1;2;3;3;1;4;4;5;4;5;4;2;2;2;3;3;2;1;42;70;23;35;40
2;4;2;4;2;3;3;2;1;1;1;4;2;1;2;4;2;1;3;3;5;4;2;3;1;1;3;4;5;1;1;42,5;55;28;40;47
3;2;3;3;2;3;2;3;1;1;1;2;2;2;3;3;3;2;3;3;2;2;2;2;1;1;1;3;3;1;1;35,75;43;27;40;33
1;1;1;1;1;1;4;2;1;1;1;1;1;1;1;1;1;1;2;1;3;1;1;1;1;1;1;1;1;1;1;18,75;25;10;20;20
1;1;1;1;1;1;4;3;1;1;1;1;1;1;1;1;1;1;1;1;1;1;1;1;1;1;1;1;1;1;1;17,5;20;10;20;20
3;4;2;3;2;4;3;2;1;1;1;5;2;2;2;4;3;1;4;4;5;4;4;4;2;2;1;1;4;1;1;43,75;70;30;35;40
3;4;3;3;4;4;3;2;1;2;1;4;4;2;4;3;3;1;3;4;5;4;3;4;2;2;1;1;5;2;1;51,5;63;35;55;53
1;1;1;1;1;1;1;1;1;1;5;1;1;1;1;1;1;1;1;1;1;1;1;1;1;1;1;1;1;1;1;17,5;20;10;20;20
4;5;4;5;3;5;2;2;1;1;1;4;3;3;3;4;4;3;5;5;5;5;4;5;4;4;1;1;1;1;1;50;87;43;50;20
2;2;1;3;2;1;2;2;1;1;2;4;1;1;1;4;4;1;4;4;4;4;2;4;2;2;1;2;1;1;1;30,75;65;18;20;20
4;5;5;5;5;5;5;2;2;1;2;5;4;4;4;5;4;4;4;4;5;4;5;4;4;4;5;5;5;1;1;66,75;87;48;85;47
4;5;4;5;4;5;1;1;2;3;3;5;4;3;4;4;5;4;5;5;5;5;5;5;5;4;4;5;5;1;1;65,5;95;45;75;47
1;3;2;5;1;5;1;1;1;1;1;1;1;1;1;1;1;1;1;1;1;2;1;2;1;1;1;1;3;1;1;26;23;28;20;33
1;1;1;2;1;1;1;1;4;2;2;5;1;1;1;5;4;3;5;5;5;5;5;5;1;1;1;1;1;1;1;33,5;82;12;20;20
4;3;4;4;1;4;1;1;1;1;1;5;1;1;4;1;1;1;3;1;5;5;5;5;1;1;1;1;1;1;1;36,25;57;33;35;20
1;1;1;1;1;1;1;4;1;1;1;1;1;1;1;1;1;1;1;1;1;1;1;1;1;1;1;2;1;1;1;17,5;20;10;20;20
1;1;1;2;1;3;1;1;1;1;1;1;1;1;1;3;1;1;2;2;5;5;1;5;1;1;1;1;1;1;1;25,5;47;15;20;20
1;1;1;1;1;1;1;4;1;1;1;1;1;1;1;1;1;1;1;1;1;1;1;1;1;1;1;1;1;1;1;17,5;20;10;20;20
4;4;4;4;3;5;1;1;1;1;1;5;2;3;3;1;1;1;3;3;5;5;1;5;1;1;1;1;1;1;1;39,5;53;40;45;20
3;5;3;5;4;5;3;1;1;1;2;4;4;3;3;5;4;1;5;5;5;5;5;5;1;1;3;3;5;1;1;57,75;77;42;65;47
2;2;3;2;2;5;1;1;1;1;1;3;3;2;1;4;3;1;4;4;5;5;4;5;2;2;4;5;5;1;1;48,5;70;27;50;47
2;1;2;1;2;1;4;2;1;1;1;4;1;2;1;4;3;1;3;3;5;5;3;5;1;1;3;4;5;1;1;40;63;15;35;47
2;2;3;1;3;2;3;1;1;1;1;2;3;2;2;2;2;1;3;2;4;4;1;4;1;1;4;3;5;1;1;42,25;45;22;55;47
3;3;2;3;2;5;4;1;1;2;1;3;3;1;2;2;3;1;3;3;4;3;2;4;1;1;1;1;4;1;1;38,75;50;30;35;40
2;2;1;3;2;5;1;1;2;1;2;2;4;1;1;3;2;1;3;3;4;4;4;4;1;1;2;1;2;1;1;36,25;53;25;40;27
1;2;1;3;2;5;2;2;2;1;1;2;3;1;1;3;2;1;3;3;4;4;2;4;1;1;2;1;4;1;1;37;50;23;35;40
1;1;1;1;1;5;4;2;1;2;1;2;2;1;1;2;2;1;3;2;4;3;1;2;1;1;1;2;2;1;1;27,25;40;17;25;27
4;2;4;1;4;5;3;1;1;1;2;4;3;2;3;5;4;1;4;4;5;5;5;5;1;1;4;4;5;1;1;53,25;73;33;60;47
1;2;3;4;1;2;1;1;2;1;1;3;2;1;1;3;2;1;2;2;4;3;2;3;1;1;2;4;2;1;1;31;45;22;30;27
4;5;5;5;5;5;999;1;2;3;4;5;4;4;5;5;4;5;5;5;5;5;4;5;5;5;3;4;4;1;1;66,25;97;48;80;40
2;3;2;1;2;4;1;2;1;1;1;3;3;1;1;3;2;1;2;3;4;4;2;4;1;1;2;2;4;1;1;37;50;23;35;40
2;3;2;3;1;5;3;2;1;1;1;2;3;1;1;2;2;1;3;2;3;2;1;2;1;1;2;3;4;1;1;34,75;37;27;35;40
1;3;2;3;2;5;1;2;1;2;1;4;2;1;2;4;3;2;4;3;4;4;3;5;2;2;3;4;5;1;1;45,25;67;27;40;47
4;3;4;3;4;4;3;1;1;1;1;4;3;3;4;1;1;1;1;1;4;4;3;4;1;1;5;5;5;1;1;50,5;43;37;75;47
2;3;2;3;2;5;999;1;1;1;1;4;3;1;2;5;3;3;5;5;5;5;3;5;2;2;2;4;5;1;1;48,25;78;28;40;47
4;3;4;5;4;5;3;1;1;5;4;5;3;1;1;5;3;3;4;4;5;5;5;5;4;3;4;4;5;1;1;54,75;85;42;45;47
2;1;1;3;1;5;3;1;1;2;1;4;3;1;1;5;4;1;5;5;5;4;5;5;1;1;2;2;4;1;1;43;75;22;35;40
3;3;3;1;3;5;1;1;2;1;2;5;3;2;3;4;4;4;4;4;5;5;5;5;5;5;4;4;4;1;1;55,5;92;30;60;40
1;2;2;1;2;4;4;1;1;2;1;2;2;1;2;3;2;1;3;2;5;4;2;4;1;1;2;2;5;1;1;38;50;20;35;47
3;3;3;3;3;4;4;1;1;2;1;3;2;3;3;3;3;1;3;3;5;5;2;5;1;1;2;2;5;1;1;46,75;58;32;50;47
1;1;1;1;1;1;1;3;1;1;1;1;1;1;1;1;1;1;2;2;1;1;1;1;1;1;1;1;1;1;1;18,25;23;10;20;20
2;3;1;2;1;1;4;4;1;1;1;5;1;1;1;4;3;1;3;3;5;5;5;5;1;1;1;1;1;1;1;31,25;68;17;20;20
4;4;4;4;4;5;2;3;2;2;2;5;5;5;5;5;5;5;5;5;5;5;5;5;5;5;1;1;1;1;1;60,5;100;42;80;20
1;1;1;1;1;1;3;1;1;1;1;2;1;1;1;1;1;1;1;1;1;1;1;1;1;1;1;1;1;1;1;18;22;10;20;20
1;1;1;1;1;1;1;2;1;1;4;1;1;1;1;1;1;1;1;1;1;1;1;1;1;1;1;1;1;1;1;17,5;20;10;20;20
3;3;2;3;1;5;1;1;2;1;1;5;2;2;2;5;5;1;5;5;5;5;5;5;1;1;1;1;1;1;1;40,75;80;28;35;20
3;3;3;3;3;3;1;1;1;1;1;5;3;3;3;1;1;1;1;3;5;5;5;5;5;5;1;1;1;1;1;42,5;70;30;50;20
1;1;1;1;1;1;1;1;1;1;1;1;1;1;1;1;1;1;3;1;1;1;1;1;1;1;1;1;1;1;1;18,25;23;10;20;20
5;5;5;5;5;5;5;1;1;1;1;5;5;5;5;5;5;5;5;5;5;5;5;5;5;5;5;1;1;1;1;67,5;100;50;100;20
1;1;1;1;1;1;1;1;1;1;1;1;1;1;1;1;1;1;1;1;1;1;1;1;1;1;1;1;1;1;1;17,5;20;10;20;20
1;1;1;1;1;1;1;1;1;1;1;1;1;1;1;1;1;1;1;1;1;1;1;1;1;1;1;1;1;1;1;17,5;20;10;20;20
1;1;1;2;1;1;1;4;2;1;1;5;1;1;1;1;1;2;4;4;5;5;5;1;1;1;1;1;1;1;1;27,5;58;12;20;20
1;1;1;1;1;1;1;1;1;1;1;1;1;1;1;1;1;1;1;1;1;1;1;1;1;1;1;1;1;1;1;17,5;20;10;20;20
1;1;1;1;1;1;1;1;1;1;1;1;1;1;1;1;1;1;1;1;1;1;1;1;1;1;1;1;1;1;1;17,5;20;10;20;20
4;3;3;5;4;5;5;3;2;1;1;5;5;3;4;5;5;5;5;5;5;5;5;5;5;5;5;1;1;1;1;61,25;100;40;85;20
1;1;1;1;1;1;1;1;1;1;1;1;1;1;1;1;1;1;1;1;1;1;1;1;1;1;1;1;1;1;1;17,5;20;10;20;20
1;1;1;1;1;1;1;1;1;1;1;1;1;1;1;1;1;1;1;1;4;4;1;1;1;1;1;1;1;1;1;20;30;10;20;20
1;1;1;1;1;1;1;1;1;1;1;1;1;1;1;1;1;1;2;1;1;1;1;1;1;1;1;1;1;1;1;18;22;10;20;20
2;2;3;3;3;4;1;2;2;2;5;2;5;4;4;5;4;4;4;4;3;4;4;4;2;3;3;5;3;3;3;60;72;28;80;60
3;5;5;5;1;5;1;1;1;1;2;5;5;5;5;5;5;5;5;5;5;5;5;5;5;5;5;4;5;1;1;71,75;100;40;100;47
5;5;5;5;5;5;5;1;1;1;1;5;5;5;5;5;5;5;5;5;5;5;5;5;5;5;5;4;5;1;1;74,25;100;50;100;47
5;5;5;5;5;5;999;3;1;1;1;5;5;5;5;5;5;5;5;5;5;5;5;5;5;5;5;4;5;1;1;74,25;100;50;100;47
4;5;5;5;5;5;1;3;2;1;3;5;5;5;5;5;5;5;5;5;5;5;5;5;5;5;5;5;5;1;1;73,75;100;48;100;47
4;5;5;5;5;5;999;2;1;1;1;5;5;5;5;5;5;5;5;5;5;5;5;5;5;5;5;5;5;1;1;73,75;100;48;100;47
1;2;1;5;1;5;1;1;1;2;1;5;2;1;3;5;5;1;5;5;5;5;5;5;2;2;5;5;5;1;1;52,5;83;25;55;47
4;5;5;5;5;5;999;3;1;1;1;5;5;5;5;5;5;5;5;5;5;5;5;5;5;5;5;5;5;1;1;73,75;100;48;100;47
3;5;5;5;4;5;1;1;1;2;1;5;4;4;5;5;5;1;5;5;5;5;5;5;5;5;5;5;5;1;1;68,75;93;45;90;47
2;5;3;5;5;5;1;3;1;1;1;5;5;5;5;5;5;1;5;5;5;5;5;5;4;4;5;5;5;1;1;69,75;90;42;100;47
4;5;5;5;5;5;3;1;1;1;1;5;5;5;5;5;5;5;5;5;5;5;5;5;5;5;5;5;5;1;1;73,75;100;48;100;47
1;3;2;5;1;5;1;1;1;2;1;5;2;1;4;5;5;5;5;5;5;5;5;5;5;5;5;5;5;1;1;58,75;100;28;60;47
1;3;1;5;2;5;3;2;2;1;1;5;1;1;3;5;5;3;5;5;5;5;5;5;5;5;1;5;5;1;1;50,5;97;28;30;47
1;1;1;2;1;5;3;1;1;1;1;2;1;1;1;2;1;1;1;1;2;2;1;1;1;1;1;5;5;1;1;28;27;18;20;47
1;2;1;4;1;5;1;1;1;1;1;4;1;1;2;4;3;1;3;3;4;4;3;4;2;2;1;5;5;1;1;39,25;62;23;25;47
1;1;1;1;1;3;4;2;1;2;1;2;1;1;1;2;1;1;3;2;1;1;1;1;1;1;1;3;4;1;1;25,25;28;13;20;40
1;1;1;3;1;5;1;1;1;2;1;4;1;1;1;4;3;1;4;3;4;4;4;4;2;2;1;4;5;1;1;38;65;20;20;47
1;1;1;1;1;3;3;2;1;2;1;3;1;1;1;4;2;2;2;2;4;3;3;2;2;2;1;4;5;1;1;33;52;13;20;47
1;1;1;1;2;3;1;1;1;1;2;3;1;1;1;3;2;1;3;2;3;2;3;1;1;1;1;3;4;1;1;29,25;42;15;20;40
1;1;1;3;1;3;1;3;1;2;1;3;1;1;1;1;1;1;1;1;3;3;1;1;1;1;1;3;2;1;1;23,5;30;17;20;27
1;1;1;1;1;1;1;2;1;1;1;2;1;1;1;2;2;1;1;1;1;1;1;1;1;1;1;2;5;1;1;25,5;25;10;20;47
2;4;1;5;2;5;1;2;1;1;1;5;3;3;4;4;2;1;1;3;5;5;2;4;1;1;1;3;5;1;1;47,75;57;32;55;47
1;2;1;5;2;5;1;2;1;1;1;5;1;4;5;5;5;3;5;5;5;5;5;5;2;2;5;4;3;1;1;55,5;87;27;75;33
4;5;5;5;4;5;1;2;1;1;1;5;4;5;5;5;5;3;5;5;5;5;5;5;5;5;5;4;5;1;1;71,5;97;47;95;47
1;2;2;3;1;1;1;2;1;1;1;3;1;1;1;2;2;1;1;2;1;2;1;1;1;1;1;3;3;1;1;25;30;17;20;33
1;1;1;1;1;3;1;2;1;1;1;2;1;1;1;1;1;1;1;1;1;1;1;1;1;1;1;3;3;1;1;22;22;13;20;33
1;2;1;2;1;5;3;2;1;1;1;3;1;1;1;3;1;1;1;1;3;2;1;1;1;1;1;3;5;1;1;29,75;32;20;20;47
1;1;1;1;1;3;1;3;1;3;1;2;1;1;1;2;1;1;1;1;1;1;1;1;1;1;1;3;5;1;1;25,75;23;13;20;47
1;2;1;3;1;5;1;2;1;1;1;4;1;1;1;2;2;1;1;1;3;2;1;3;1;1;1;3;2;1;1;26,5;37;22;20;27
1;2;1;4;1;5;1;3;1;1;1;4;1;1;1;1;1;1;1;1;3;1;1;1;1;2;1;3;2;1;1;25;30;23;20;27
1;2;1;3;1;3;3;2;1;1;4;3;1;1;1;4;3;1;4;3;4;3;2;4;1;1;1;3;5;1;1;35;55;18;20;47
1;2;1;4;1;5;1;2;1;1;1;3;1;1;1;2;2;1;1;1;1;1;1;1;1;1;1;3;2;1;1;24,25;27;23;20;27
1;2;1;3;1;5;1;3;1;1;1;3;1;1;1;2;2;1;4;2;1;1;1;1;1;1;1;3;5;1;1;30,5;33;22;20;47
1;1;1;3;1;5;1;2;1;1;1;3;1;1;1;4;2;1;4;2;4;3;1;2;1;1;1;3;5;1;1;33,5;47;20;20;47
1;2;1;3;1;5;3;2;1;1;1;4;1;1;1;4;3;3;3;3;4;4;2;4;2;2;1;4;5;1;1;38;63;22;20;47
1;2;1;3;1;4;3;3;1;1;1;4;1;1;1;3;2;1;3;3;4;4;4;4;2;2;2;5;5;1;1;38;60;20;25;47
1;2;2;3;1;5;1;2;1;2;1;4;2;1;1;3;2;1;1;2;4;3;2;3;2;2;1;3;5;1;1;35,75;48;23;25;47
1;1;1;1;1;1;1;1;1;1;1;4;1;1;1;4;3;1;4;3;4;4;3;4;3;2;1;5;5;1;1;35,5;65;10;20;47
2;3;2;5;2;5;1;2;1;1;1;5;2;2;2;5;5;2;5;5;5;5;5;5;3;3;1;5;5;1;1;50,5;88;32;35;47
1;1;2;3;1;4;3;2;3;2;1;3;1;1;1;3;3;1;4;3;4;4;4;4;2;2;1;5;5;1;1;37,25;62;20;20;47
1;1;1;3;1;5;1;2;1;3;1;4;1;1;1;4;3;1;4;3;4;4;2;4;2;2;1;4;5;1;1;37,25;62;20;20;47
1;2;2;3;1;5;1;2;2;1;1;4;2;2;2;4;2;3;4;3;4;4;2;4;3;3;2;5;5;1;1;44,25;67;23;40;47
1;2;1;3;1;3;4;1;1;1;2;3;1;1;1;4;2;3;1;2;4;4;4;4;2;2;1;4;5;1;1;35,75;58;18;20;47
1;1;1;3;1;3;3;1;1;1;1;2;1;1;1;4;2;1;2;2;1;1;1;1;1;1;1;2;3;1;1;25,5;32;17;20;33
2;2;2;2;3;2;2;2;1;1;1;2;1;1;1;1;1;1;4;4;4;3;3;3;2;2;2;2;2;4;1;36;50;22;25;47
1;1;1;1;1;2;1;1;1;1;1;1;1;1;1;1;1;1;1;1;1;1;1;1;1;1;1;2;3;2;3;26,25;20;12;20;53
1;1;1;2;2;2;1;4;3;1;1;4;2;1;1;3;1;1;4;4;3;3;4;4;1;1;1;1;4;3;2;38,75;55;15;25;60
1;1;1;2;1;1;1;3;1;1;1;3;1;1;1;1;1;1;4;3;1;1;2;1;1;1;5;5;5;2;2;36,25;33;12;40;60
2;3;3;3;3;4;3;4;2;2;2;4;3;2;2;3;3;3;5;4;4;4;4;4;2;2;1;1;4;2;2;48,25;70;30;40;53
2;2;2;3;3;3;3;3;2;2;2;3;3;2;2;2;2;2;4;4;3;3;3;3;3;3;2;2;2;3;2;43,75;58;25;45;47
1;1;1;1;1;1;3;4;1;1;4;1;1;1;1;1;1;1;1;1;1;1;1;1;1;1;4;3;5;4;3;36,25;20;10;35;80
1;1;1;2;1;1;3;3;4;3;1;2;2;1;1;1;1;1;3;2;3;3;3;3;1;1;1;2;4;3;3;36;40;12;25;67
1;3;1;2;2;2;1;5;2;1;1;2;2;1;2;2;2;2;2;2;2;2;3;2;2;2;2;4;3;3;1;35,5;42;18;35;47
1;1;1;1;1;1;1;2;1;1;1;3;1;1;1;4;2;1;4;2;4;3;2;3;1;1;1;3;5;1;1;31,75;50;10;20;47
1;1;1;3;1;5;3;2;1;1;1;3;1;1;1;3;2;1;3;2;3;3;1;1;1;1;1;5;3;1;1;28,25;40;20;20;33
1;1;1;1;1;5;3;1;2;2;1;4;1;1;1;5;4;3;5;5;4;4;4;4;2;2;1;4;5;1;1;40,25;77;17;20;47
1;1;1;3;1;3;1;2;1;1;1;3;1;1;1;1;1;1;1;1;2;1;2;1;1;1;1;3;3;1;1;24,25;27;17;20;33
2;2;1;4;1;5;5;1;1;1;1;1;2;2;1;2;1;1;1;1;1;1;1;1;1;1;2;5;2;5;3;37,25;22;25;35;67
2;2;2;2;1;5;1;2;2;1;2;2;2;1;1;2;2;1;2;2;2;2;1;1;1;1;1;1;1;1;1;25;32;23;25;20
2;3;2;1;2;5;1;1;1;1;1;2;2;1;1;1;2;2;2;1;3;2;1;2;1;1;2;2;1;1;2;28,75;33;25;30;27
2;2;2;3;2;5;4;1;2;1;1;1;2;2;2;3;1;2;2;2;1;1;1;1;1;1;2;5;5;4;3;43,75;28;27;40;80
2;3;2;4;1;2;4;2;1;2;1;2;2;1;2;3;1;1;2;2;2;2;2;2;1;1;1;3;1;3;4;35,25;35;23;30;53
1;1;1;2;1;1;999;2;1;2;2;2;1;1;1;2;1;1;3;2;3;2;1;1;1;1;1;4;4;1;1;26,25;33;12;20;40
2;3;2;4;1;1;1;1;5;1;1;4;3;3;3;5;4;2;5;5;5;5;4;4;2;1;3;1;5;1;1;51,5;77;22;60;47
5;5;5;5;5;5;999;1;5;5;3;5;5;5;5;5;5;5;5;5;5;5;5;5;5;5;5;1;5;1;1;74,25;100;50;100;47
5;5;5;5;5;5;999;1;2;2;3;5;5;5;5;5;5;5;5;5;5;5;5;5;5;5;5;5;5;1;1;74,25;100;50;100;47
2;1;1;3;1;5;1;4;1;5;1;4;2;1;1;5;4;1;5;5;5;4;5;4;1;1;2;4;5;1;1;43;73;22;30;47
4;4;3;3;4;5;4;1;1;1;1;5;3;3;4;5;4;4;5;5;5;5;5;5;5;5;1;4;4;1;1;57,5;97;38;55;40
5;5;5;5;5;5;999;1;1;1;5;5;5;5;5;5;5;5;5;5;5;5;5;5;5;5;5;1;5;1;1;74,25;100;50;100;47
1;2;1;1;1;5;5;1;1;2;1;2;1;2;1;3;1;3;3;3;5;2;1;3;2;2;1;3;5;1;1;35;50;18;25;47
1;1;1;1;1;5;5;2;1;1;1;1;1;1;1;3;1;1;1;1;1;2;1;1;1;1;1;4;5;1;1;27,25;25;17;20;47
1;2;1;3;1;1;4;2;1;1;1;2;1;1;1;2;1;2;1;1;1;2;1;1;2;1;5;5;5;1;1;32,5;28;15;40;47
3;3;2;5;1;5;1;1;1;1;4;3;3;3;3;3;2;3;3;3;4;5;1;5;3;2;1;4;4;1;1;46;62;32;50;40
3;3;2;5;1;5;1;1;1;1;4;3;3;3;3;3;2;3;3;3;4;5;1;5;3;2;1;4;4;1;1;46;62;32;50;40
4;5;5;5;5;5;4;2;2;3;2;5;5;5;5;5;5;3;5;5;5;5;5;5;5;3;5;5;5;1;1;72;93;48;100;47
1;2;1;3;1;1;5;1;1;2;1;1;1;1;1;1;1;1;3;3;1;2;1;1;1;1;1;4;1;1;1;20,75;28;15;20;20
1;2;1;5;1;5;1;2;1;1;1;1;1;1;1;1;1;1;1;1;1;1;1;1;1;1;1;4;5;1;1;28;20;25;20;47
2;1;2;4;2;3;1;1;2;1;2;4;2;2;2;4;4;3;5;5;5;5;3;5;4;4;3;5;5;1;1;50;85;23;45;47
4;5;4;5;4;5;1;1;1;1;1;4;4;4;5;5;4;1;1;1;1;5;1;5;2;1;3;4;5;1;1;56;52;45;80;47
1;2;1;3;1;4;1;1;1;1;1;3;1;1;1;4;3;1;3;3;3;3;2;2;1;1;1;1;1;1;1;27;48;20;20;20
1;2;2;4;1;5;999;1;1;2;1;2;1;1;1;1;1;1;1;1;1;2;1;1;1;1;1;4;4;1;1;27;23;25;20;40
1;1;1;3;1;5;5;1;3;2;1;4;1;1;1;5;5;1;5;5;5;2;1;4;2;2;1;4;5;1;1;38,75;68;20;20;47
1;2;1;1;1;5;1;1;1;1;2;1;1;1;1;2;2;1;2;2;3;1;1;1;1;1;1;1;1;1;1;22;30;18;20;20
1;1;1;1;1;1;4;1;1;1;1;1;1;1;1;2;1;1;1;1;1;1;1;1;1;1;1;1;1;1;1;18;22;10;20;20
2;3;2;4;1;1;1;1;5;1;1;4;3;3;3;5;4;5;5;5;5;5;4;4;2;1;3;5;5;1;1;52,75;82;22;60;47
1;3;2;4;1;1;1;1;1;2;1;1;1;1;1;4;2;1;3;3;4;4;3;3;1;1;1;1;1;1;1;27,5;50;20;20;20
1;1;1;5;1;5;1;2;1;2;3;2;1;1;1;3;2;1;2;2;1;1;1;1;1;1;1;4;5;1;1;30;30;23;20;47
4;4;4;4;3;5;3;1;1;1;1;5;3;3;4;5;4;3;5;5;5;5;5;5;4;3;1;4;4;1;1;56,25;90;40;55;40
1;1;1;2;1;1;4;1;1;1;1;1;1;1;1;2;1;1;3;3;5;2;1;1;2;1;1;5;5;1;1;29,25;38;12;20;47
4;4;4;4;3;5;4;2;2;1;3;5;3;4;4;5;4;4;5;5;5;5;5;5;5;5;2;4;4;1;1;60,5;97;40;65;40
5;5;5;5;5;5;999;1;5;5;5;5;5;5;5;5;5;5;5;5;5;5;5;5;5;5;1;1;1;1;1;62,5;100;50;80;20
5;5;5;5;5;5;5;2;2;3;2;5;5;5;5;5;4;5;5;5;5;5;5;5;5;5;5;5;5;1;1;73,75;98;50;100;47
1;1;1;3;1;5;2;1;1;2;3;4;2;1;1;3;2;1;2;3;3;3;3;3;1;1;1;1;2;1;1;30;48;20;25;27
5;5;5;5;5;5;5;1;1;1;1;5;5;5;5;5;4;5;5;5;5;5;5;5;5;5;1;4;5;1;1;68,75;98;50;80;47
1;1;1;1;1;1;4;3;1;1;1;1;1;1;1;2;2;1;3;2;1;2;1;1;1;1;1;4;5;1;1;26,75;30;10;20;47
1;1;1;1;1;1;1;1;1;2;1;1;1;1;1;4;2;2;3;3;4;3;4;4;1;1;1;1;1;1;1;25,75;53;10;20;20
4;5;5;5;4;5;3;1;1;2;1;5;4;5;5;5;5;5;5;5;5;5;5;5;5;5;1;1;1;1;1;60,5;100;47;75;20
1;2;1;3;1;5;5;1;1;3;1;3;2;1;2;2;2;2;4;3;4;3;3;3;2;3;1;4;4;1;2;39;57;22;30;47
1;2;2;4;1;5;5;1;1;2;1;4;1;1;2;4;4;1;5;5;5;5;2;5;1;2;1;4;5;1;1;42,25;72;25;25;47
5;5;5;5;5;5;1;4;5;1;5;5;5;5;5;5;5;5;5;5;5;5;5;5;5;5;5;1;5;1;1;74,25;100;50;100;47
3;3;2;4;2;4;1;3;1;1;1;5;2;2;2;5;4;5;5;5;5;5;4;5;2;2;1;4;5;1;1;49,75;87;30;35;47
3;3;3;3;2;3;1;1;1;2;1;5;2;2;2;5;4;4;5;5;5;5;5;5;5;5;1;4;4;1;1;50;97;28;35;40
1;2;1;3;1;1;5;2;1;1;1;2;1;1;1;3;3;1;3;2;1;2;1;1;1;1;5;5;5;1;1;34,25;35;15;40;47
2;2;2;3;2;1;2;1;2;1;1;4;1;1;2;3;3;1;4;4;4;3;3;3;2;2;2;4;4;1;1;37,5;60;20;30;40
1;2;1;1;1;5;4;1;1;2;1;4;1;2;1;5;4;3;5;5;5;5;2;5;2;2;1;3;4;1;1;40,25;78;18;25;40
1;3;3;3;3;2;999;1;1;1;2;1;1;1;1;1;1;1;2;3;2;2;1;1;1;1;4;5;3;1;1;30,25;28;25;35;33
1;1;1;2;1;5;5;1;2;1;1;1;1;1;1;2;1;1;1;1;1;1;1;1;1;1;1;4;5;1;1;26,75;22;18;20;47
3;4;2;4;2;4;1;1;1;1;1;3;3;2;2;1;1;1;1;1;2;2;2;2;1;1;3;3;3;1;1;36,25;30;32;50;33
2;2;1;4;2;5;4;1;1;3;1;4;2;3;1;4;4;1;4;4;3;3;3;4;2;1;1;1;4;1;1;41;62;27;35;40
5;5;5;5;5;5;5;2;2;3;2;5;5;5;5;5;5;5;5;5;5;5;5;5;5;5;5;5;5;1;1;74,25;100;50;100;47
2;3;2;4;2;5;1;1;1;1;1;4;2;2;2;4;4;2;4;4;4;3;4;3;2;2;5;5;4;1;1;48;67;30;55;40
1;1;1;2;1;2;5;1;1;1;4;1;1;1;1;1;1;1;1;1;1;2;1;2;1;1;1;5;3;1;1;22,25;23;13;20;33
2;3;3;3;2;5;1;1;1;1;1;4;2;2;2;3;3;3;3;3;4;3;3;4;3;2;1;3;3;1;1;40,25;63;30;35;33
1;1;1;4;1;2;5;2;1;1;3;2;2;1;1;3;3;1;3;2;4;2;2;2;1;1;1;4;2;1;1;28;43;17;25;27
1;2;1;3;1;5;5;2;1;1;4;4;1;1;1;4;3;1;4;4;5;3;2;4;1;1;1;4;4;1;1;35,5;60;22;20;40
1;3;2;3;2;5;1;1;1;1;1;3;2;1;2;2;2;2;2;2;4;2;3;3;2;1;1;4;5;1;1;37,75;47;27;30;47
3;4;3;4;3;5;1;1;1;1;2;5;3;3;4;3;2;2;2;3;4;3;3;3;3;2;2;4;4;1;1;48,75;58;37;60;40
1;2;2;4;1;5;4;3;2;1;1;4;1;1;1;5;4;1;5;5;5;4;2;5;2;1;2;5;4;1;1;40,5;72;25;25;40
1;1;2;3;2;5;3;2;1;1;2;2;2;1;2;2;2;2;2;2;1;1;1;1;1;1;1;4;5;1;1;32,5;30;23;30;47
1;3;3;3;2;4;1;1;1;1;2;3;2;2;2;4;3;2;4;3;4;3;2;2;2;2;1;3;4;1;1;39,75;57;27;35;40
1;2;2;4;1;5;3;1;1;1;1;3;2;2;1;3;2;2;2;2;4;3;2;3;1;1;4;5;5;1;1;41;47;25;45;47
1;1;1;1;1;4;4;1;1;1;1;1;1;1;1;2;1;1;1;1;1;1;1;1;1;1;1;2;2;1;1;21;22;15;20;27
1;2;2;2;1;3;4;1;1;1;1;3;2;1;1;2;3;2;4;3;3;3;3;2;1;1;1;5;1;1;1;28,25;50;18;25;20
2;3;2;3;2;1;1;3;1;1;1;2;2;1;1;3;2;1;4;3;2;2;2;2;1;1;2;1;1;1;1;28,5;42;22;30;20
1;1;1;3;1;1;1;2;1;4;1;3;1;1;1;4;4;3;3;3;4;3;3;1;1;1;1;1;1;1;1;27;55;13;20;20
1;1;2;1;1;5;2;2;1;1;1;2;1;1;1;3;2;2;2;2;2;2;1;2;1;1;1;2;5;1;1;30,5;37;18;20;47
1;2;1;3;1;5;1;2;1;1;4;2;1;1;1;3;3;1;3;3;3;2;1;1;1;1;1;4;5;1;1;32,25;40;22;20;47
1;2;1;3;1;1;4;2;1;2;1;3;1;1;1;4;3;3;4;3;4;3;2;2;2;2;1;4;5;1;1;35;58;15;20;47
3;3;3;5;3;5;1;1;1;1;1;5;4;4;4;5;4;5;5;5;5;5;5;5;5;5;5;4;5;1;1;66,75;98;37;85;47
1;1;2;1;1;2;3;1;1;2;1;1;1;1;1;1;2;1;4;3;2;1;1;1;1;1;1;5;1;1;1;21,25;32;13;20;20
3;3;3;3;2;5;3;3;1;1;2;5;3;2;3;3;3;2;4;4;3;2;2;4;2;2;2;5;4;1;1;45,5;60;32;50;40
2;3;2;5;2;4;5;1;1;1;2;5;2;3;3;5;4;2;5;5;5;5;5;5;3;2;1;3;5;1;1;51,75;85;30;45;47
1;1;1;2;1;1;1;1;1;1;1;1;1;1;1;1;1;1;2;1;1;1;1;1;1;1;1;1;1;1;1;18,5;22;12;20;20
1;2;1;5;1;5;1;1;1;1;1;2;2;1;1;3;3;1;4;3;4;2;2;5;1;1;2;4;5;1;1;38,5;52;25;30;47
5;5;5;5;5;5;5;1;2;1;1;5;5;5;5;5;4;5;5;5;5;5;5;5;5;5;1;4;5;1;1;68,75;98;50;80;47
1;1;1;1;1;1;3;1;1;2;1;1;1;1;1;1;1;2;1;1;1;1;1;2;1;1;1;1;1;1;1;18,25;23;10;20;20
1;1;1;4;1;2;5;3;3;1;1;2;1;1;1;4;2;4;4;3;4;4;2;2;1;1;1;1;1;1;1;28;55;17;20;20
2;3;2;5;2;5;3;2;1;3;2;4;4;3;3;3;3;3;4;3;5;5;2;4;1;1;2;5;4;1;1;48,75;63;32;60;40
1;1;1;1;1;1;1;1;1;1;1;1;1;1;1;1;1;1;1;1;1;1;1;1;1;1;1;1;1;1;1;17,5;20;10;20;20
1;1;1;3;1;4;4;3;2;1;4;2;2;2;2;3;2;1;2;2;3;2;1;3;1;1;1;1;1;1;1;27,75;38;18;35;20
1;1;1;2;1;3;1;1;1;1;1;1;1;1;1;1;2;1;2;1;1;1;1;1;1;1;1;1;1;1;1;19,5;23;15;20;20
1;2;1;4;1;5;1;1;1;1;2;1;1;1;1;1;1;1;1;1;1;1;1;1;1;1;1;1;1;1;1;20,75;20;23;20;20
1;1;1;1;1;1;4;4;2;1;2;2;1;1;1;3;2;3;3;2;2;1;1;2;1;1;1;1;1;1;1;22;38;10;20;20
1;1;1;1;1;3;1;3;1;3;3;5;1;1;1;4;4;4;5;5;5;5;3;5;5;5;1;5;5;1;1;43;92;13;20;47
1;1;2;1;2;1;4;3;1;3;1;1;1;1;1;1;1;2;1;1;1;1;1;1;1;1;1;1;1;1;1;18,75;22;13;20;20
1;1;1;2;1;1;1;1;4;1;2;2;1;1;1;3;2;1;4;3;3;3;1;3;1;1;1;1;1;1;1;24,25;45;12;20;20
1;1;1;3;1;2;5;2;1;1;4;4;2;1;1;4;4;1;4;3;4;4;4;5;1;1;1;1;1;1;1;31,25;65;15;25;20
2;1;1;1;1;1;3;1;1;1;1;1;1;1;1;1;1;1;1;1;4;1;1;1;1;1;1;1;1;1;1;19,25;25;12;20;20
1;3;3;5;1;5;3;1;1;1;1;4;2;1;1;4;2;2;3;3;4;3;3;3;1;1;1;4;5;1;1;39,25;55;30;25;47
4;5;5;5;5;5;999;1;1;1;1;4;4;4;4;2;2;2;2;2;4;5;4;4;4;4;1;4;4;1;1;54,5;65;48;65;40
4;4;3;3;3;3;1;1;1;1;1;4;3;2;2;2;3;3;3;3;4;4;3;3;1;1;1;4;5;1;1;44,25;57;33;40;47
1;3;3;3;3;3;1;3;2;1;1;4;1;1;1;3;2;2;2;2;4;1;4;4;1;1;1;4;4;1;1;34,25;50;27;20;40
1;3;3;5;2;5;4;1;1;2;1;5;3;3;4;3;3;4;3;3;4;4;3;4;3;2;1;4;3;1;1;47;68;32;55;33
1;2;1;3;1;1;1;1;1;1;1;1;1;1;1;1;1;1;1;1;1;1;1;1;1;1;1;4;4;1;1;23,75;20;15;20;40
1;1;1;1;1;3;4;1;1;3;1;2;1;1;1;2;1;1;1;1;1;1;1;1;1;1;1;4;3;1;1;22,25;23;13;20;33
2;4;2;3;1;1;1;2;1;2;1;1;1;1;1;3;4;1;3;3;3;3;4;3;1;1;1;5;5;1;1;34,75;50;22;20;47
1;1;1;3;1;5;999;1;1;1;1;2;1;1;1;3;3;1;4;3;3;2;1;3;1;1;1;4;5;1;1;33;45;20;20;47
1;2;2;2;1;5;4;1;1;3;1;4;2;1;1;4;3;2;4;4;4;4;3;4;1;2;1;4;5;1;1;39,75;65;22;25;47
1;1;1;3;1;1;1;2;1;1;1;1;1;1;1;1;1;1;1;1;1;1;1;1;1;1;1;4;5;1;1;25;20;13;20;47
1;1;1;3;1;5;5;2;2;1;1;5;1;1;1;5;4;3;5;5;5;5;5;5;3;3;1;4;5;1;1;43,75;88;20;20;47
1;2;1;1;1;5;5;1;1;2;1;2;1;1;1;3;3;1;3;2;3;2;1;1;1;1;2;4;4;1;1;30,25;38;18;25;40
1;2;1;1;1;1;1;2;1;2;1;2;1;1;1;4;4;3;4;4;4;2;4;3;1;1;1;4;4;1;1;33;60;12;20;40
1;3;3;5;1;5;4;1;1;1;4;5;3;2;2;4;3;2;4;4;4;4;4;4;2;1;1;4;4;1;1;44,5;68;30;40;40
1;4;3;5;2;5;1;2;1;2;1;5;4;3;4;5;4;3;5;4;5;5;5;5;4;3;1;4;5;1;1;57;88;33;60;47
1;2;2;5;1;3;3;2;1;2;1;3;2;1;1;2;1;2;2;2;3;2;2;1;1;1;1;4;5;1;1;33;37;23;25;47
1;1;1;3;1;1;1;2;1;1;1;1;1;1;1;1;1;1;1;1;1;1;1;1;1;1;1;3;4;1;1;23,25;20;13;20;40
1;1;1;3;1;1;5;3;1;1;1;1;1;1;1;3;4;4;3;4;4;2;3;3;1;1;1;4;5;1;1;33,75;55;13;20;47
1;2;1;2;1;5;3;2;1;2;1;1;1;1;1;2;1;1;1;1;1;1;1;1;1;1;1;4;4;1;1;25,5;22;20;20;40
1;1;1;1;1;5;1;1;1;1;1;1;1;1;1;1;1;2;2;2;4;4;4;1;1;1;1;3;4;1;1;29,25;40;17;20;40
0;2;3;1;1;3;1;3;1;1;4;4;2;2;2;4;3;2;3;3;4;3;4;4;2;2;1;4;5;1;1;40,5;63;17;35;47
1;2;1;4;1;5;4;1;1;1;1;1;1;1;1;2;1;1;1;1;1;2;1;1;1;1;1;4;4;1;1;26,5;23;23;20;40
1;1;1;1;1;1;1;1;1;1;1;1;1;1;1;3;3;1;3;3;4;2;3;1;1;1;1;3;4;1;1;28,25;43;10;20;40
1;2;2;3;1;5;3;1;1;1;1;5;2;1;1;3;2;1;4;3;4;3;2;3;2;1;1;4;5;1;1;37,5;55;23;25;47
1;1;2;3;1;5;4;1;1;2;2;3;2;1;1;3;3;2;4;2;3;2;1;1;1;1;1;4;2;1;1;29,25;43;22;25;27
1;4;3;4;1;4;1;2;1;1;1;4;1;1;1;4;4;1;4;4;4;5;4;4;1;1;1;4;4;1;1;38,75;67;28;20;40
1;2;2;5;1;5;4;1;1;1;1;5;3;1;3;4;2;2;4;2;4;3;4;4;2;1;1;4;5;1;1;44;62;27;40;47
5;5;5;5;5;5;999;2;1;1;1;4;5;5;5;5;4;3;5;5;5;5;5;5;5;5;1;5;5;5;5;80,75;93;50;80;100
1;3;1;3;1;5;5;1;1;1;1;3;1;1;1;3;3;1;4;2;4;2;1;4;1;1;1;4;4;1;1;32,75;48;23;20;40
1;2;2;3;1;3;4;2;1;1;3;3;2;1;1;4;2;3;4;2;4;3;4;2;1;1;1;3;4;1;1;35;55;20;25;40
1;2;1;4;1;5;4;3;1;1;1;4;1;1;1;3;2;1;2;3;4;2;1;1;1;1;5;5;5;1;1;38;42;23;40;47
1;2;2;1;1;5;1;1;1;2;4;4;1;1;1;5;4;1;5;4;4;4;4;4;1;1;5;5;4;1;1;42;68;20;40;40
1;3;1;3;1;1;1;1;1;1;1;1;1;1;1;1;1;1;1;1;1;1;1;1;1;1;1;3;5;1;1;26;20;17;20;47
1;3;3;3;1;3;5;1;1;2;1;4;2;1;1;4;3;2;4;4;4;4;3;4;1;1;1;4;4;1;1;37,75;63;23;25;40
2;3;2;3;1;4;5;1;1;1;1;3;1;1;1;3;3;1;3;4;3;2;4;3;1;1;1;3;2;1;1;31;52;25;20;27
1;2;2;2;1;3;3;1;1;1;1;2;1;1;1;2;2;1;3;2;2;2;2;2;1;1;1;3;4;1;1;28,75;37;18;20;40
1;2;2;3;1;5;4;2;1;2;2;4;2;1;1;4;3;2;3;2;4;4;3;3;2;1;1;4;4;1;1;36,5;58;23;25;40
1;2;2;1;1;5;1;1;1;1;1;4;2;1;1;4;2;2;2;2;4;2;3;2;2;2;3;5;5;1;1;38,5;52;20;35;47
1;2;2;4;1;2;3;1;1;2;1;4;2;1;2;4;2;2;4;4;4;4;4;4;3;3;1;4;5;1;1;41,75;70;20;30;47
1;1;1;3;1;1;3;3;1;2;1;2;1;1;1;3;2;1;3;2;3;2;2;3;1;1;1;3;2;1;1;25,5;42;13;20;27
4;2;3;3;3;4;4;2;1;2;1;4;2;1;3;3;4;1;4;4;3;3;2;3;1;1;1;4;5;1;1;42,25;55;32;35;47
1;2;2;3;1;5;1;1;1;1;3;5;1;1;1;3;4;1;5;5;5;3;3;5;2;2;1;4;4;1;1;38,75;72;23;20;40
1;2;1;2;1;2;1;2;1;2;1;3;1;1;1;3;2;1;3;3;2;2;3;2;1;1;2;3;2;1;1;27,5;43;15;25;27
5;5;4;5;5;5;1;2;1;2;1;4;4;3;4;4;5;1;4;4;4;5;5;4;1;1;3;3;5;1;1;58,75;70;48;70;47
1;2;1;2;1;1;4;2;1;1;1;3;1;1;1;1;1;1;1;1;1;1;1;1;1;1;1;3;4;1;1;24;23;13;20;40
1;2;2;4;1;3;3;1;1;2;2;2;2;1;1;2;1;1;2;1;1;2;1;2;1;1;1;5;1;1;1;23,75;28;22;25;20
1;1;1;3;1;1;5;1;1;1;1;1;1;1;1;1;1;2;1;1;1;1;1;1;1;1;1;3;4;1;1;23,75;22;13;20;40
1;1;2;5;1;1;1;3;1;1;1;2;2;2;4;1;1;1;2;1;1;1;1;1;1;1;5;5;2;1;1;33,25;23;18;65;27
1;2;2;3;1;3;1;1;1;2;1;2;1;1;1;1;1;1;1;1;1;1;1;1;1;1;1;5;5;1;1;27,25;22;20;20;47
1;2;2;5;2;5;4;2;1;2;1;4;2;1;2;4;3;3;3;2;4;4;3;4;2;2;1;3;4;1;1;40,25;63;28;30;40
1;3;2;5;2;5;1;1;1;1;1;3;3;2;2;1;1;1;1;1;3;3;2;2;1;1;1;5;5;1;1;37,5;33;30;40;47
1;1;2;3;1;1;4;1;1;2;1;3;2;1;1;4;3;1;4;2;4;4;2;3;2;2;1;3;4;1;1;34,25;57;15;25;40
1;1;1;1;1;1;2;1;1;1;1;1;1;1;1;2;2;2;4;4;4;4;4;4;2;2;1;1;1;1;1;27;58;10;20;20
1;1;1;1;1;1;1;1;1;1;1;2;1;1;1;1;1;1;1;1;1;1;1;1;1;1;1;1;1;1;1;18;22;10;20;20
1;1;1;1;1;1;1;1;1;1;1;1;1;1;1;1;1;1;1;1;1;1;1;1;1;1;1;1;1;1;1;17,5;20;10;20;20
1;1;2;1;1;1;2;1;1;1;1;2;1;2;2;3;1;3;2;2;2;3;2;2;2;2;1;1;1;1;1;26,25;43;12;30;20
1;1;2;1;1;1;2;1;1;1;1;1;1;1;1;1;1;1;1;1;1;1;1;1;1;1;1;1;1;1;1;18;20;12;20;20
1;1;1;1;1;1;2;1;1;1;1;1;1;1;1;2;1;1;2;2;2;2;1;1;1;1;1;1;1;1;1;19,5;28;10;20;20
1;1;1;1;1;1;1;1;1;1;1;1;1;1;1;1;1;1;1;1;1;1;1;1;1;1;1;1;1;1;1;17,5;20;10;20;20
1;1;1;1;1;1;1;1;1;1;1;3;1;1;3;3;2;4;4;4;4;4;3;4;4;4;1;5;1;1;1;33;72;10;30;20
1;1;1;1;1;1;1;1;1;1;1;2;1;1;2;2;2;2;2;2;2;2;2;2;2;2;2;5;1;1;1;25;40;10;30;20
1;1;1;1;1;1;1;1;1;1;1;1;1;1;1;1;1;1;1;1;1;1;1;1;1;1;1;5;1;1;1;17,5;20;10;20;20
3;1;2;5;5;3;1;3;2;1;1;3;4;3;3;2;2;1;3;2;4;4;4;4;2;1;1;4;5;1;1;46,75;53;32;55;47
5;5;5;5;5;5;1;2;1;1;1;5;5;5;5;4;4;5;4;4;5;5;5;5;5;5;5;5;5;1;1;72,5;93;50;100;47
2;3;3;5;3;5;1;2;0;0;1;3;3;3;4;3;2;1;3;3;4;5;2;5;2;1;5;5;5;1;1;53,5;57;35;75;47
5;5;5;5;5;5;1;1;2;2;1;5;5;5;4;5;5;5;5;5;5;5;5;5;5;5;1;4;5;1;1;68;100;50;75;47
1;1;1;3;2;5;4;1;1;1;2;2;1;1;1;4;1;1;2;1;5;4;1;3;1;1;1;5;2;1;1;28;43;22;20;27
1;1;1;0;2;0;2;3;2;2;1;4;2;5;5;4;4;4;5;5;5;4;3;5;2;2;1;4;5;1;1;49,5;78;8;65;47
1;1;1;3;1;1;2;1;1;1;4;3;1;1;1;3;2;4;2;2;4;4;2;4;4;4;2;4;5;1;1;37;63;13;25;47
1;2;2;3;1;2;1;1;1;2;4;4;2;2;2;4;3;1;5;4;5;5;5;5;3;3;3;5;5;1;1;47;78;18;45;47
3;3;3;5;4;5;1;2;1;1;1;5;3;3;4;4;4;1;4;4;5;5;5;5;2;2;5;5;5;1;1;59,25;77;38;75;47
1;2;2;3;2;5;1;1;4;1;1;5;2;3;3;4;5;2;5;5;5;5;5;5;2;2;1;4;5;1;1;50;83;25;45;47
1;1;1;1;1;1;1;3;2;2;1;5;4;5;4;4;4;4;5;5;5;5;5;5;5;5;5;1;3;1;1;57;95;10;90;33
2;2;2;2;2;2;2;4;4;3;1;2;1;1;1;2;2;2;4;3;5;5;3;5;1;1;1;2;3;1;1;32,75;58;20;20;33
4;4;4;5;4;4;1;4;3;2;1;5;5;5;5;5;5;5;5;5;5;5;5;5;5;5;5;1;3;1;1;68,75;100;42;100;33
1;3;2;2;1;1;1;1;2;4;1;5;1;1;1;1;1;1;5;4;5;5;4;5;2;1;1;1;2;1;1;32,25;65;17;20;27
2;2;2;1;1;3;3;3;1;5;1;5;1;1;1;1;1;1;3;1;5;5;4;5;1;1;1;1;2;1;1;30;55;18;20;27
2;2;2;2;2;3;2;2;1;1;1;5;1;1;1;1;1;1;3;1;4;4;3;5;1;1;1;1;1;1;1;28;50;22;20;20
4;4;4;5;3;4;1;2;1;1;1;5;5;5;5;5;5;5;5;5;5;5;5;5;5;5;5;1;1;1;1;65;100;40;100;20
1;1;1;1;1;1;1;1;1;1;1;1;1;1;1;1;1;1;1;1;1;1;1;1;1;1;1;1;1;1;1;17,5;20;10;20;20
3;3;3;4;3;4;1;3;1;1;1;5;3;1;3;2;2;3;3;3;5;5;5;5;5;5;5;1;1;1;1;48,25;80;33;60;20
3;3;2;4;3;5;1;3;1;1;1;4;3;3;3;1;1;1;1;1;5;5;5;5;5;5;5;1;1;1;1;47;65;33;70;20
1;1;1;1;1;1;1;2;1;1;1;1;1;1;1;1;1;1;2;1;5;5;1;5;1;1;1;1;1;1;1;23;42;10;20;20
1;1;1;1;1;1;1;3;1;1;1;5;1;1;1;1;1;1;3;3;3;3;1;4;1;1;1;1;1;1;1;23,75;45;10;20;20
1;1;1;1;1;1;1;1;1;1;1;1;1;1;1;1;1;1;1;1;1;1;1;1;1;1;1;1;1;1;1;17,5;20;10;20;20
4;5;4;5;3;5;1;1;1;1;1;5;4;1;4;4;1;4;5;5;5;5;5;5;5;5;5;1;1;1;1;55,75;90;43;70;20
1;1;1;1;1;1;1;2;2;1;1;3;1;1;1;1;1;1;4;1;1;1;1;1;1;1;1;1;1;1;1;19,5;28;10;20;20
5;5;5;5;5;5;5;1;1;1;1;5;5;5;5;5;5;5;5;5;5;5;5;5;5;5;1;1;1;1;1;62,5;100;50;80;20
3;4;1;3;1;3;1;2;3;1;1;4;3;1;1;1;1;1;3;1;5;5;1;5;1;1;1;1;1;1;1;30,75;48;25;30;20
3;3;2;3;3;4;1;2;1;1;1;5;1;1;1;1;1;1;3;1;5;5;3;5;1;1;1;1;1;1;1;30,75;53;30;20;20
1;1;1;1;1;1;1;1;1;1;1;5;1;1;1;5;4;4;5;5;5;5;4;5;1;1;1;1;1;1;1;33;82;10;20;20
1;1;1;1;1;1;1;1;1;1;1;1;1;1;1;1;1;1;1;1;1;1;1;1;1;1;1;1;1;1;1;17,5;20;10;20;20
1;1;1;1;1;1;1;1;1;1;1;1;1;1;1;1;1;1;3;1;5;5;1;4;1;1;4;4;4;1;1;31,75;42;10;35;40
1;1;1;1;1;1;1;1;1;1;1;1;1;1;1;1;1;1;1;1;1;1;1;1;1;1;1;1;1;1;1;17,5;20;10;20;20
4;4;5;5;4;4;1;2;2;2;1;5;4;1;4;4;1;4;5;5;5;5;5;5;5;5;1;1;1;1;1;50,75;90;43;50;20
1;1;1;2;1;1;3;1;1;1;1;5;3;2;2;5;5;4;5;5;5;5;5;5;5;5;1;1;1;1;1;42,5;98;12;40;20
2;2;3;5;4;4;999;2;1;2;1;4;4;1;5;1;1;1;1;2;4;4;4;4;1;1;3;4;5;1;1;48;47;33;65;47
4;5;5;5;5;5;999;1;1;2;2;5;4;3;4;3;3;2;2;1;5;5;5;5;3;3;5;5;5;1;1;61,25;70;48;80;47
4;4;4;4;4;5;1;3;1;2;2;4;4;1;2;3;2;2;4;3;5;4;5;5;1;1;2;5;5;1;1;49,75;65;42;45;47
4;5;4;5;3;5;999;1;1;1;2;4;3;2;4;2;2;1;1;2;5;1;2;3;2;1;1;4;5;1;1;45,75;43;43;50;47
4;5;4;5;4;5;999;2;1;2;2;5;2;1;4;4;1;4;5;5;5;5;5;5;2;2;1;4;5;1;1;53;80;45;40;47
3;3;4;4;3;4;4;1;2;2;4;4;4;3;4;4;4;2;5;5;5;4;4;4;3;3;2;2;2;1;1;51,25;78;35;65;27
2;2;3;3;2;2;3;1;1;2;4;4;3;2;2;4;3;1;4;4;4;3;3;3;1;1;2;2;2;1;1;38,25;58;23;45;27
2;2;2;2;2;2;1;3;1;3;1;3;3;1;2;2;1;1;1;2;2;2;1;1;1;1;3;3;5;1;1;35,5;30;20;45;47
2;2;2;2;1;2;1;1;1;1;1;2;2;2;1;2;2;1;2;2;2;2;1;2;1;1;1;1;3;1;1;28,5;33;18;30;33
2;4;3;2;3;5;2;3;1;1;1;4;4;3;4;4;3;3;3;4;5;4;3;5;3;2;1;4;5;1;1;52,75;72;32;60;47
2;1;2;5;1;1;3;4;2;1;1;3;2;2;2;5;5;1;4;4;5;5;4;5;5;4;1;1;5;1;1;46,25;83;20;35;47
4;4;4;5;5;5;3;1;2;2;4;5;4;3;5;5;5;4;5;5;5;5;5;5;5;5;1;5;5;1;1;63,75;98;45;65;47
2;2;2;2;2;3;1;2;2;1;2;3;2;1;1;3;3;1;3;3;4;3;2;3;2;2;1;2;5;1;1;36,75;53;22;25;47
2;1;1;2;2;1;1;1;2;1;2;2;1;1;1;2;2;1;2;2;2;3;1;3;1;1;1;3;5;1;2;31,25;37;15;20;53
3;2;3;5;5;5;3;1;4;1;4;5;4;3;4;4;5;5;5;5;5;5;5;5;5;5;2;5;5;1;1;62;98;38;65;47
1;1;1;2;1;1;2;1;1;2;2;2;1;2;2;3;2;3;3;2;3;3;3;2;1;1;1;4;3;1;1;30,5;47;12;30;33
1;2;2;5;1;2;4;2;1;1;1;3;2;1;1;2;1;1;1;1;3;3;3;2;1;1;1;4;5;1;1;32,75;37;22;25;47
1;2;1;3;1;1;4;2;1;1;1;5;1;1;1;4;4;2;4;3;4;4;2;3;1;1;1;4;1;1;1;29,25;62;15;20;20
1;2;2;2;1;3;4;2;1;1;1;4;2;2;2;3;2;2;3;2;4;4;4;4;2;2;1;4;2;1;1;35;60;18;35;27
1;1;1;3;1;3;4;1;1;1;1;3;1;1;1;3;2;2;4;2;3;3;3;2;2;2;1;4;3;1;1;30,5;52;17;20;33
1;1;2;3;1;5;4;2;5;1;4;3;1;1;1;4;3;2;5;4;5;4;3;4;1;1;1;4;5;1;1;38,5;65;22;20;47
1;2;1;3;1;3;1;1;1;1;1;3;1;1;1;2;2;1;2;2;3;2;1;1;1;1;1;4;2;1;1;25;35;18;20;27
1;1;1;2;1;5;3;3;1;2;1;2;1;1;1;3;1;1;2;2;3;3;2;1;1;1;1;3;4;1;1;28,75;37;18;20;40
1;2;2;2;1;3;1;2;1;2;1;3;1;1;1;3;2;1;3;2;3;3;2;2;1;1;1;4;3;1;1;28,5;43;18;20;33
1;1;1;3;2;5;1;1;1;2;1;2;2;1;1;1;1;1;1;1;1;1;1;1;1;1;3;5;2;1;1;26,5;22;22;35;27
1;1;1;1;1;5;1;1;1;1;1;2;1;1;1;1;1;1;1;1;1;1;1;1;1;1;1;3;2;1;1;21,5;22;17;20;27
1;1;1;5;2;3;1;2;1;2;1;4;2;1;2;3;2;1;3;3;4;1;2;3;2;2;5;5;5;1;1;42,25;50;22;50;47
2;4;3;5;3;5;1;2;1;2;4;5;3;3;4;5;5;3;5;5;5;5;5;5;5;5;2;4;5;1;1;60,25;97;37;60;47
1;3;2;5;2;5;1;1;1;1;2;4;2;2;2;3;2;3;2;2;4;5;3;3;2;2;1;4;5;1;1;42,5;58;30;35;47
1;1;1;2;1;1;5;1;1;2;1;3;1;1;1;3;3;1;4;3;3;3;2;3;2;2;4;4;5;1;1;36,75;53;12;35;47
1;3;2;3;2;3;3;2;1;1;1;4;2;1;1;2;2;1;1;2;3;3;2;2;1;1;1;4;5;1;1;33,75;40;23;25;47
1;1;2;1;1;3;4;1;1;2;3;4;2;1;2;5;5;2;5;5;5;5;4;4;3;3;1;4;5;1;1;43,75;83;15;30;47
1;1;2;4;1;5;4;2;1;2;1;3;2;1;1;5;4;2;5;5;4;4;3;3;2;2;1;4;5;1;1;41,25;70;23;25;47
2;3;3;5;2;5;1;1;1;1;2;5;4;4;4;5;5;4;5;5;5;5;5;5;2;2;1;4;5;1;1;58,25;88;33;65;47
1;2;1;3;1;3;999;1;1;2;1;3;1;1;1;3;2;2;3;3;4;3;2;4;2;2;1;4;4;1;1;33,25;55;18;20;40
1;2;2;2;2;5;999;1;2;0;1;3;2;2;2;3;3;1;3;2;3;3;2;3;1;1;1;5;3;1;1;34,5;47;23;35;33
1;1;1;3;1;3;3;3;1;3;1;2;1;1;1;3;1;1;1;1;2;2;3;2;1;1;1;4;3;1;1;25,75;33;17;20;33
1;1;1;1;1;1;3;1;1;1;1;4;1;1;1;3;1;4;4;4;3;3;3;3;2;2;3;4;1;1;1;30;60;10;30;20
1;1;1;1;1;1;1;1;1;1;1;2;1;1;1;1;1;1;1;1;1;1;1;1;1;1;1;1;1;1;1;18;22;10;20;20
1;1;1;2;2;2;2;3;1;1;1;2;1;1;1;2;1;1;1;1;2;1;1;2;2;1;1;1;1;1;1;20,75;28;15;20;20
3;5;2;2;1;5;2;3;1;1;1;4;4;2;1;2;1;2;1;3;4;4;3;3;2;1;1;1;3;1;1;38,25;50;30;40;33
1;1;1;1;1;3;2;1;1;1;1;3;2;1;1;2;1;2;2;2;3;2;1;1;1;1;1;1;1;1;1;23,25;35;13;25;20
2;3;2;2;2;5;2;2;1;1;1;3;2;2;1;3;1;1;2;2;3;3;3;3;1;1;2;1;1;1;1;31,25;43;27;35;20
1;2;1;4;1;1;4;2;1;1;1;1;1;1;1;1;1;1;2;1;1;1;1;1;1;1;3;3;1;1;1;22,25;22;17;30;20
1;1;1;1;1;1;1;3;1;1;1;2;1;1;1;2;1;1;1;2;1;1;1;1;1;1;1;1;1;1;1;18,75;25;10;20;20
1;1;1;5;3;2;2;3;1;1;1;2;1;1;1;2;1;1;1;1;2;2;3;2;2;1;1;1;1;1;1;23,75;33;22;20;20
1;1;1;4;1;3;1;1;1;1;1;2;1;1;1;1;1;1;2;1;1;2;1;1;1;1;3;3;1;1;1;23,25;25;18;30;20
4;5;3;5;1;5;2;2;1;1;1;4;3;3;3;3;3;2;2;2;3;3;4;3;2;2;1;1;1;1;1;40,75;55;38;50;20
3;3;1;3;2;3;1;2;3;1;1;1;1;1;1;1;1;1;1;1;1;1;1;1;1;1;5;5;3;1;1;29,5;20;25;40;33
1;2;1;2;1;5;1;1;1;1;1;2;1;1;1;1;1;1;4;4;3;3;4;3;1;1;1;1;1;1;1;26,75;47;20;20;20
1;1;3;2;1;4;1;1;1;1;1;3;1;2;1;3;4;2;3;3;2;3;3;3;2;2;1;1;1;1;1;30;55;20;25;20
1;2;1;2;1;4;1;3;1;1;1;2;1;1;1;1;1;1;1;1;1;2;1;1;1;1;1;1;1;1;1;20,25;23;18;20;20
1;1;1;1;1;1;2;2;1;1;1;2;1;1;1;3;1;1;2;2;2;2;3;2;1;1;1;1;1;1;1;21,75;37;10;20;20
3;3;3;2;1;5;1;3;1;5;1;4;2;2;1;4;4;4;5;4;5;5;5;5;4;4;1;1;1;1;1;41,5;88;28;30;20
3;4;4;5;2;5;1;2;1;2;1;4;3;3;3;4;3;2;3;3;4;2;3;3;1;1;4;4;5;1;1;51,25;55;38;65;47
2;3;3;5;2;5;1;3;1;1;1;4;3;3;3;4;3;1;4;4;4;4;4;4;2;2;3;3;5;2;1;53,25;67;33;60;53
3;4;3;5;1;5;1;2;1;3;1;4;3;3;3;4;3;4;4;4;5;5;5;4;4;4;4;4;5;1;1;57,5;83;35;65;47
2;2;2;4;1;5;1;2;1;5;1;3;3;2;2;2;3;2;4;4;4;4;4;4;2;2;2;2;4;1;1;43,75;63;27;45;40
2;2;2;3;3;5;1;3;1;1;1;3;2;2;2;2;2;3;3;3;3;3;3;4;1;1;1;1;1;1;1;33,75;52;28;35;20
4;5;5;5;5;1;1;1;5;5;1;5;5;5;5;5;5;5;5;5;5;5;5;5;5;5;1;3;5;1;1;67,25;100;42;80;47
2;3;3;2;2;5;4;3;1;2;1;3;3;1;1;2;2;2;3;3;4;3;3;3;2;1;1;2;3;1;1;35,75;52;28;30;33
1;1;1;2;1;5;5;2;1;2;1;3;1;1;1;4;2;2;4;1;3;3;3;2;1;1;1;4;3;1;1;29,75;48;18;20;33
1;2;1;5;1;3;4;1;1;1;1;2;2;1;1;3;2;1;3;2;2;2;1;1;1;1;1;4;3;1;1;28,75;35;22;25;33
2;3;2;5;2;5;999;1;1;1;1;5;3;4;4;5;4;2;5;5;4;4;4;4;2;2;1;4;5;1;1;54;77;32;60;47
1;1;1;2;1;1;3;1;1;1;1;2;1;1;1;2;1;1;1;1;3;2;1;1;1;1;1;3;4;1;1;25;28;12;20;40
1;1;1;1;1;3;4;1;2;2;1;3;1;1;1;4;2;3;4;2;4;3;2;3;1;1;2;4;5;1;1;34,5;53;13;25;47
1;3;2;3;1;5;3;1;1;1;1;4;2;1;1;4;3;1;4;3;4;4;2;3;1;1;1;4;4;1;1;36,75;57;25;25;40
1;1;1;5;1;3;3;1;1;1;1;3;1;1;1;4;2;1;1;2;2;2;1;2;1;1;1;4;3;1;1;27,5;37;20;20;33
1;1;1;2;1;5;1;1;1;1;1;2;1;1;1;2;2;2;2;2;3;3;2;2;2;1;3;4;4;1;1;32,5;42;18;30;40
1;1;2;2;2;5;4;1;3;1;1;2;2;1;1;2;1;2;1;2;1;1;1;1;1;1;1;1;3;1;1;26,75;27;22;25;33
1;1;1;1;1;3;3;1;1;1;1;2;1;1;1;2;2;1;2;2;2;2;1;1;1;1;1;3;3;1;1;24,5;32;13;20;33
1;1;1;1;1;5;4;2;1;1;1;1;1;1;1;1;1;1;1;1;1;1;1;1;1;1;1;2;2;1;1;21;20;17;20;27
1;2;2;5;1;5;4;2;1;1;1;3;2;1;1;4;3;1;3;2;2;2;2;1;1;1;1;3;3;1;1;31,75;42;27;25;33
1;1;1;1;1;1;4;2;1;1;1;2;1;1;1;3;2;1;2;2;1;2;1;1;1;1;1;2;2;1;1;22,25;32;10;20;27
1;1;2;3;1;1;1;2;1;2;1;2;2;1;1;1;2;1;2;2;2;2;1;1;1;1;1;3;3;1;1;25,75;30;15;25;33
1;2;1;2;1;5;1;2;1;1;1;2;1;1;1;4;2;1;4;2;3;2;2;2;1;1;1;3;3;1;1;29;43;20;20;33
1;1;1;1;1;5;3;1;1;1;1;1;1;1;1;1;1;1;3;2;2;2;2;1;1;1;1;3;4;1;1;26,75;30;17;20;40
1;1;1;2;1;3;1;2;1;1;4;2;1;1;1;2;1;1;1;1;1;2;1;1;1;1;1;2;2;1;1;21,75;25;15;20;27
1;2;2;3;1;4;4;1;1;1;1;3;1;1;1;4;2;1;4;2;4;3;2;3;1;1;1;4;4;1;1;33;50;22;20;40
1;1;1;1;1;1;5;2;1;1;2;3;1;1;1;2;1;1;1;1;2;2;1;1;1;1;3;4;4;1;1;27;28;10;30;40
1;2;2;4;1;5;4;1;1;2;1;5;2;2;2;5;5;3;5;5;5;5;5;5;2;2;1;4;5;1;1;48,5;87;25;35;47
2;4;2;5;2;5;999;2;1;2;3;5;4;3;4;5;5;3;5;5;5;5;5;5;5;5;1;4;5;1;1;59,25;97;33;60;47
1;2;2;5;1;5;4;1;1;2;1;5;2;2;2;5;4;4;5;5;5;5;5;5;3;2;1;4;5;1;1;49,25;88;27;35;47
3;5;4;5;3;5;999;1;1;2;3;5;4;4;4;5;5;5;5;5;5;5;5;5;5;5;5;5;5;1;1;68,5;100;42;85;47
1;4;3;5;1;5;4;1;1;2;2;3;2;1;1;3;2;1;2;2;2;2;2;2;1;1;1;4;4;1;1;33,75;38;32;25;40
1;3;2;4;1;2;3;1;1;2;1;3;2;1;1;4;2;2;3;2;3;3;2;2;1;1;4;5;4;1;1;37,25;47;22;40;40
1;1;1;1;1;5;1;1;1;1;1;2;1;1;1;1;1;1;1;1;3;2;1;1;1;1;1;4;4;1;1;26;27;17;20;40
1;1;1;3;1;5;4;1;5;1;1;1;1;1;1;3;2;2;3;2;3;3;2;3;1;1;1;4;5;1;1;32,5;43;20;20;47
2;4;2;5;2;5;3;1;1;2;1;5;3;3;4;5;3;2;5;5;4;4;4;4;2;2;1;4;3;1;1;49;75;33;55;33
3;4;3;5;3;5;1;1;1;1;1;4;4;4;4;2;2;1;1;2;2;2;2;2;1;1;1;4;5;1;1;46,75;37;38;65;47
2;3;3;5;3;5;4;1;1;1;3;3;3;2;2;5;4;1;5;5;4;4;4;4;2;2;1;4;5;1;1;48,5;72;35;40;47
1;2;2;1;1;3;4;3;1;3;4;4;1;1;1;5;5;4;5;5;5;5;4;5;4;4;1;5;5;1;1;44;92;17;20;47
1;2;2;3;1;5;1;1;1;1;1;5;2;2;2;5;5;4;5;5;5;5;5;5;3;3;1;4;5;1;1;49,25;92;23;35;47
1;2;1;4;1;5;1;2;1;1;1;3;1;1;1;2;1;1;1;2;3;2;2;2;1;1;1;4;5;1;1;31,25;35;23;20;47
1;2;2;5;1;5;1;1;1;1;1;3;1;1;1;2;1;1;1;1;2;2;2;1;1;1;1;4;5;1;1;31;30;27;20;47
1;2;1;4;1;5;4;1;1;1;4;4;2;2;2;4;3;4;4;3;4;4;3;4;2;2;1;4;5;1;1;43,25;68;23;35;47
1;3;2;4;2;5;4;2;1;2;1;4;2;2;2;5;3;1;4;4;4;4;3;4;2;2;5;5;4;1;1;47,5;67;28;55;40
1;1;1;3;1;3;1;1;1;1;1;4;1;1;1;5;4;1;4;4;4;4;4;4;1;1;1;4;2;1;1;32,75;67;17;20;27
1;3;2;5;2;5;999;1;1;1;1;5;4;4;5;5;4;4;5;5;5;5;5;5;4;4;1;4;5;1;1;60;93;30;70;47
1;2;2;4;1;5;4;2;1;1;1;3;2;1;1;4;2;1;3;2;3;3;2;2;1;1;1;4;3;1;1;32;45;25;25;33
1;1;1;3;1;5;4;1;1;1;1;3;1;1;1;2;1;1;1;1;1;1;1;1;1;1;1;4;1;1;1;21,25;25;20;20;20
1;1;1;1;1;1;1;2;1;1;1;3;1;1;1;4;2;1;3;2;3;3;2;3;1;1;2;4;3;1;1;28,75;47;10;25;33
4;5;5;5;5;5;5;1;2;1;2;5;5;5;5;5;5;5;5;5;5;5;5;5;5;5;5;4;5;1;1;73,75;100;48;100;47
1;2;2;5;1;5;4;1;1;1;4;4;2;4;4;5;4;4;5;5;5;4;3;5;3;3;1;4;3;1;1;49,5;83;27;55;33
1;2;1;4;1;5;4;1;1;2;1;3;1;1;1;3;2;1;4;2;3;3;3;2;1;1;1;4;4;1;1;32,5;47;23;20;40
1;1;1;4;2;5;3;1;1;1;2;3;1;1;1;1;1;1;1;1;2;2;1;1;1;1;2;4;5;1;1;30,5;27;23;25;47
4;5;5;5;4;5;999;1;1;5;4;5;4;4;4;4;4;4;5;5;5;5;5;5;5;5;2;2;3;1;1;61,25;95;47;70;33
5;5;5;5;5;5;999;1;1;5;1;5;5;5;5;5;5;5;5;5;5;5;5;5;5;5;3;1;3;1;1;68,25;100;50;90;33
5;5;5;5;5;5;999;1;1;5;1;5;5;5;5;5;5;5;5;5;5;5;5;5;5;5;4;1;3;1;1;69,5;100;50;95;33
4;5;5;5;5;5;999;3;1;5;4;5;5;5;5;5;5;5;5;5;5;5;5;5;5;5;2;1;5;1;1;70;100;48;85;47
4;5;5;5;0;1;999;1;1;1;1;5;5;4;5;5;5;5;5;5;5;5;5;5;4;4;3;2;5;1;1;65,5;97;33;85;47
4;5;5;5;4;5;999;1;1;5;4;5;4;4;4;5;5;5;5;5;5;5;5;5;5;5;1;1;3;1;1;61,25;100;47;65;33
4;4;4;4;4;5;999;1;1;4;2;5;4;4;5;5;5;4;5;5;5;5;5;5;4;4;2;2;5;1;1;64,75;95;42;75;47
4;5;5;5;4;5;999;2;1;3;1;5;4;5;5;5;5;5;5;5;5;5;5;5;5;5;1;1;5;1;1;67,25;100;47;75;47
4;5;5;5;4;5;999;1;2;4;1;5;4;5;5;5;5;4;5;5;5;5;5;5;5;5;2;1;5;1;1;68;98;47;80;47
5;5;5;5;5;5;999;3;1;5;4;5;5;5;5;5;5;5;5;5;5;5;5;5;5;5;2;1;5;1;1;70,5;100;50;85;47
5;5;5;5;5;5;999;2;1;3;4;5;5;5;5;5;5;5;5;5;5;5;5;5;5;5;5;2;5;1;1;74,25;100;50;100;47
5;5;4;5;4;5;999;2;1;3;2;5;5;5;5;5;5;5;5;5;5;5;5;5;5;5;2;2;5;1;1;69,75;100;47;85;47
4;5;5;5;4;5;999;2;1;3;2;5;4;4;4;5;5;5;5;5;5;5;5;5;5;5;5;2;5;1;1;69,75;100;47;85;47
4;4;4;4;4;5;999;2;1;3;2;5;4;4;5;4;4;4;5;5;5;5;5;4;4;4;2;2;4;1;1;61,75;90;42;75;40
5;5;5;5;5;5;999;2;1;3;2;5;5;5;5;5;5;5;5;5;5;5;5;5;5;5;4;1;5;1;1;73;100;50;95;47
4;4;4;4;4;5;999;1;1;3;2;4;4;5;5;4;4;4;4;4;4;4;4;4;5;5;1;1;3;1;1;58,25;83;42;75;33
4;4;4;4;4;4;999;4;1;2;2;4;4;4;4;4;4;4;5;5;4;4;4;5;4;4;2;2;5;1;1;60,5;85;40;70;47
5;5;5;5;5;5;999;4;1;3;2;5;5;5;5;5;5;5;5;5;5;5;5;5;5;5;4;2;5;1;1;73;100;50;95;47
4;4;4;4;4;4;999;2;3;3;2;5;4;4;4;5;4;4;5;5;5;5;5;5;5;5;2;2;5;1;1;63,5;97;40;70;47
5;5;5;5;5;5;999;1;1;3;2;5;4;4;4;4;4;4;5;5;5;5;5;5;4;4;2;2;5;1;1;64,75;92;50;70;47
5;5;5;5;5;5;999;1;1;3;2;5;5;5;5;5;5;5;5;5;5;5;5;5;5;5;2;2;2;1;1;65,5;100;50;85;27
5;5;5;5;5;5;999;3;1;2;2;5;5;5;5;5;5;5;5;5;5;5;5;5;5;5;3;2;5;1;1;71,75;100;50;90;47
3;4;3;4;3;3;1;4;1;1;1;4;2;1;3;1;1;1;2;1;5;5;5;5;5;5;5;1;1;1;1;43,75;67;33;55;20
1;1;1;1;2;2;2;2;2;2;3;3;3;3;3;3;3;3;3;3;3;3;3;2;2;2;2;2;2;2;2;40,75;55;13;55;40
1;3;2;2;2;2;2;2;1;1;1;2;2;2;2;2;2;2;2;2;2;2;2;2;2;2;2;1;1;1;1;30;40;20;40;20
1;2;1;1;1;1;1;1;1;1;1;1;1;1;1;1;1;1;1;1;1;1;1;1;1;1;1;1;1;1;1;18;20;12;20;20
1;1;1;1;1;1;1;1;1;1;1;1;1;1;1;1;1;1;1;1;1;1;1;1;1;1;1;1;1;1;1;17,5;20;10;20;20
1;2;2;2;2;2;2;1;1;1;1;1;1;1;1;1;1;1;1;1;1;1;1;1;1;1;1;1;1;1;1;19,5;20;18;20;20
1;1;1;1;1;1;2;1;3;1;1;3;3;1;2;1;1;1;1;1;3;2;2;2;1;1;1;1;1;1;1;24,25;32;10;35;20
1;1;2;1;1;2;4;4;1;1;4;4;1;1;1;5;3;1;5;4;4;4;2;4;1;1;1;2;2;0;1;29;63;13;20;20
1;1;2;1;1;2;4;4;1;1;4;4;1;1;1;5;3;1;5;4;4;4;2;4;1;1;1;2;2;0;1;29;63;13;20;20
1;1;2;1;1;2;4;4;1;1;4;4;1;1;1;5;3;1;5;4;4;4;2;4;1;1;1;2;2;0;1;29;63;13;20;20
1;1;2;1;1;2;4;4;1;1;4;2;1;1;1;3;1;1;4;2;1;1;1;1;1;1;1;2;2;0;1;21,25;32;13;20;20
1;1;2;1;1;2;4;4;1;1;4;2;1;1;1;3;1;1;4;2;1;1;1;1;1;1;1;2;2;0;1;21,25;32;13;20;20
1;1;2;2;1;2;4;3;1;1;0;4;2;0;1;4;3;1;4;4;4;3;2;3;0;0;0;1;2;0;3;29;53;15;15;33
1;1;2;2;1;2;4;3;1;1;0;4;2;0;1;4;3;1;4;4;4;3;2;3;0;0;0;1;2;0;3;29;53;15;15;33
0;0;1;1;0;1;3;3;1;1;0;3;1;0;1;3;2;1;4;3;3;2;1;2;1;1;1;1;2;0;3;24;43;5;15;33
1;2;2;3;2;4;3;3;2;2;2;2;3;2;3;2;3;3;3;3;3;4;4;3;3;3;3;5;3;3;3;49,5;60;23;55;60
1;1;1;1;1;1;999;2;1;1;2;3;2;1;1;3;3;3;3;3;3;3;3;3;3;2;1;1;1;1;1;28,25;58;10;25;20
4;1;1;1;1;1;3;2;1;1;2;3;1;1;1;2;2;1;4;3;2;2;2;2;1;1;1;2;3;3;3;34,25;42;15;20;60
1;1;3;3;3;3;1;2;2;3;5;4;3;3;2;4;2;1;3;5;3;3;5;4;1;1;4;4;5;5;3;57,5;60;23;60;87
3;4;3;4;4;5;2;3;2;1;2;4;3;3;2;5;4;4;5;5;4;5;5;5;4;4;3;4;3;3;2;59;90;38;55;53
1;2;2;2;2;1;2;1;2;3;1;3;2;1;1;1;1;3;2;3;3;3;3;3;2;2;2;3;4;1;1;33,75;48;17;30;40
4;4;4;4;4;4;2;3;1;3;2;4;4;3;3;4;3;2;3;4;4;4;5;4;3;3;3;4;5;5;2;64,25;72;40;65;80
2;3;3;4;3;5;2;2;1;1;2;3;2;2;3;3;3;2;3;3;4;3;4;4;2;2;3;5;4;5;3;55,75;60;33;50;80
2;3;3;4;3;5;2;2;1;1;2;3;2;2;3;3;3;2;3;3;4;3;4;4;2;2;3;5;4;5;2;54;60;33;50;73
2;1;1;1;5;5;1;3;1;1;1;5;5;5;3;5;5;4;5;5;4;5;5;5;5;4;1;1;1;1;1;52,5;95;25;70;20
1;1;3;2;3;1;4;1;4;2;4;5;1;5;5;4;4;4;5;5;4;4;4;4;4;4;2;2;3;1;1;50,25;85;18;65;33
1;1;2;3;2;3;999;3;1;4;1;2;2;3;1;3;3;2;2;2;3;2;3;2;3;3;3;1;3;2;3;42;50;20;45;53
2;2;2;1;1;1;1;1;1;1;2;2;3;3;3;3;3;2;2;3;2;2;2;2;2;2;2;2;2;2;2;38,75;45;15;55;40
3;3;3;3;0;2;2;1;1;1;3;3;3;3;3;3;3;3;3;3;3;3;2;2;2;2;2;2;2;3;2;44,5;53;23;55;47
2;2;2;2;2;2;2;2;2;2;2;2;2;2;2;2;2;2;2;2;2;2;2;2;2;2;2;2;2;2;2;35;40;20;40;40
2;2;2;2;2;2;2;2;2;1;2;2;2;2;1;1;2;2;2;2;2;2;2;2;2;2;1;2;2;2;2;32;38;20;30;40
2;2;2;2;2;2;2;2;2;2;2;2;2;2;2;2;2;2;2;2;2;2;2;2;2;2;2;2;2;2;2;35;40;20;40;40
1;2;2;2;2;3;5;2;2;2;4;2;4;2;2;2;2;2;2;3;3;3;3;3;3;3;2;5;4;3;2;45,5;52;20;50;60
1;1;2;2;1;2;4;4;2;4;1;3;1;1;1;3;2;1;2;3;3;2;2;3;1;1;1;1;1;1;1;24,5;43;15;20;20
1;1;1;2;1;1;2;1;1;1;1;3;1;1;2;3;3;1;3;2;3;3;1;1;1;1;1;1;1;1;1;24,75;42;12;25;20
1;1;1;3;3;3;3;1;1;1;5;5;2;1;1;5;4;1;4;5;5;4;5;4;1;1;1;4;5;1;1;41,25;73;20;25;47
1;1;1;1;3;5;3;1;3;2;1;2;2;1;1;4;4;1;4;5;4;3;3;3;1;1;4;5;5;1;1;41,25;58;20;40;47
4;5;5;5;4;5;4;2;1;1;4;5;4;4;4;4;4;3;5;5;5;5;5;5;5;4;2;5;5;1;1;64;92;47;70;47
4;5;4;4;4;5;999;3;1;1;1;4;3;4;4;3;2;1;3;3;5;5;5;5;3;1;3;5;5;1;1;56,75;67;43;70;47
5;5;5;5;5;5;999;1;1;1;1;5;5;5;5;5;5;5;5;5;5;5;5;5;5;5;5;5;5;1;1;74,25;100;50;100;47
3;3;4;1;3;2;999;1;1;1;2;3;2;2;2;3;2;1;3;2;4;3;2;3;1;1;2;5;5;1;1;40,25;47;27;40;47
4;5;5;5;5;5;999;1;1;1;3;5;5;5;5;5;5;5;5;5;5;5;5;5;5;5;5;4;5;1;1;73,75;100;48;100;47
5;5;5;5;5;5;999;2;1;1;3;5;5;5;5;5;5;5;5;5;5;5;5;5;5;5;5;5;5;1;1;74,25;100;50;100;47
1;1;1;1;1;1;1;3;3;1;1;1;1;1;1;1;1;1;1;1;1;1;1;1;1;1;1;5;5;1;1;24,25;20;10;20;47
1;2;3;1;2;2;1;1;1;1;1;2;2;1;2;2;2;1;1;1;3;3;1;2;1;1;1;4;5;1;1;32;33;18;30;47
4;3;3;1;3;4;999;1;1;1;1;4;3;1;3;3;2;1;1;2;4;4;4;4;2;2;2;4;5;1;1;44,25;55;30;45;47
4;3;3;1;3;4;999;1;1;1;1;4;3;1;3;3;2;1;1;2;4;4;4;4;2;2;2;4;5;1;1;44,25;55;30;45;47
1;1;1;1;1;3;1;1;4;1;1;1;1;1;1;1;1;1;1;1;1;1;1;1;1;1;1;5;5;1;1;25;20;13;20;47
3;3;2;1;2;1;2;2;1;1;1;2;2;2;2;2;2;2;3;2;4;4;1;3;1;1;3;5;5;1;1;39,25;45;20;45;47
3;4;4;1;2;2;4;1;1;1;1;4;2;2;2;3;3;2;4;2;4;4;2;3;1;1;3;5;5;1;1;43,5;55;27;45;47
3;4;3;5;3;5;999;2;2;1;2;5;4;4;4;5;5;5;5;5;5;5;5;5;5;5;2;4;5;1;1;63,75;100;38;70;47
4;3;4;1;2;2;3;1;1;1;2;4;2;2;2;4;3;2;4;4;4;4;5;4;2;2;2;4;5;1;1;46;70;27;40;47
1;1;1;1;1;1;4;2;3;1;1;2;1;1;1;4;3;2;4;3;4;4;1;2;1;1;1;4;2;1;1;27,25;52;10;20;27
4;4;4;4;3;4;1;1;1;1;1;4;3;3;4;3;1;2;2;3;4;4;5;4;2;2;1;4;5;1;1;50;60;38;55;47
1;1;1;2;1;2;999;1;1;1;2;2;1;1;1;1;1;1;2;2;3;2;1;3;1;1;1;1;1;1;5;28,25;33;13;20;47
3;3;3;1;3;2;1;2;1;2;1;4;3;2;3;4;3;2;3;2;4;4;4;4;2;2;1;4;5;1;1;45;63;25;45;47
4;4;4;5;4;5;999;1;1;1;3;5;4;3;4;4;4;3;4;4;4;4;5;4;4;4;2;4;5;1;1;59,25;82;43;65;47
1;1;1;1;1;1;4;2;1;2;1;2;1;1;1;2;3;2;4;3;4;3;2;4;1;1;1;4;5;1;1;32,25;52;10;20;47
1;1;2;1;2;1;999;2;1;1;1;2;2;1;1;2;2;1;2;2;3;2;1;1;1;1;4;4;2;1;1;28,25;33;13;40;27
1;1;1;1;1;1;2;1;1;2;1;4;1;1;1;4;3;1;4;2;4;3;2;4;1;1;1;4;5;1;1;33;55;10;20;47
3;4;4;3;4;4;999;1;1;1;3;3;4;3;3;4;3;2;4;4;4;4;3;4;2;2;1;4;5;1;1;51;65;37;55;47
3;2;2;1;3;1;4;1;1;1;1;5;2;2;4;4;4;1;4;4;5;4;5;4;2;2;1;4;5;1;1;46,25;73;20;45;47
3;3;4;1;1;5;5;1;1;1;2;4;3;2;3;4;4;4;5;5;5;5;5;5;2;2;1;4;5;1;1;50,75;83;28;45;47
4;4;4;5;4;5;999;1;1;1;4;4;4;3;4;3;2;1;1;2;4;4;3;4;2;2;1;4;5;1;1;50,75;53;43;60;47
3;3;4;5;1;5;999;1;1;1;1;2;3;3;3;2;1;1;4;3;4;4;2;1;1;1;1;5;5;1;1;43,75;43;35;50;47
1;1;1;1;1;1;999;1;1;1;1;4;1;1;1;4;3;2;3;3;4;4;2;4;1;1;1;4;5;1;1;33,75;58;10;20;47
2;2;3;1;2;2;999;1;1;1;1;3;2;2;2;3;3;2;4;2;4;4;2;4;2;1;1;4;5;1;1;39,75;57;20;35;47
1;1;1;1;1;1;4;1;1;1;2;2;1;1;1;2;2;2;4;2;4;3;1;2;1;1;4;5;5;1;1;33,75;43;10;35;47
1;1;1;1;1;1;999;2;1;2;2;2;1;1;1;1;1;1;1;1;4;2;1;1;1;1;1;4;5;1;1;26,25;28;10;20;47
4;3;3;3;4;4;1;3;1;1;2;4;4;3;3;3;1;1;1;2;3;3;3;3;2;2;1;5;5;1;1;46;47;35;55;47
4;4;3;4;4;5;1;1;2;1;3;4;3;3;3;3;3;1;3;3;5;5;4;4;2;3;5;4;5;1;1;56;67;40;70;47
2;2;2;1;1;5;4;1;3;3;3;5;2;1;2;5;4;5;5;5;5;5;5;5;5;5;1;1;1;1;1;42,5;98;22;30;20
1;1;1;1;2;4;4;3;2;2;3;2;1;1;1;3;3;1;4;3;3;3;3;4;2;2;1;1;5;1;1;34,75;55;17;20;47
2;4;3;5;4;4;1;3;1;1;1;1;3;3;3;1;1;1;1;1;1;1;1;1;1;1;5;5;5;1;1;43,5;20;37;70;47
5;3;3;3;3;3;2;3;3;3;2;2;3;3;3;3;2;3;4;2;4;5;5;4;3;3;3;2;3;3;3;55;67;33;60;60
3;1;3;3;4;2;1;2;2;3;1;4;3;2;3;2;2;2;1;2;1;1;1;1;1;1;4;3;5;5;4;53;32;27;60;93
3;1;3;3;4;2;1;2;2;3;1;4;3;2;3;2;2;2;1;2;1;1;1;1;1;1;4;3;5;5;4;53;32;27;60;93
3;1;3;1;4;1;1;1;1;1;1;3;3;1;3;1;3;1;1;2;1;1;1;1;1;1;4;5;4;5;5;49,5;28;22;55;93
3;1;3;1;4;1;1;1;1;1;1;3;3;1;3;1;3;1;1;2;1;1;1;1;1;1;4;5;4;5;5;49,5;28;22;55;93
1;1;1;2;1;1;4;1;1;1;1;1;1;1;1;1;1;2;1;1;1;1;1;1;1;1;1;1;2;2;1;21,75;22;12;20;33
1;1;1;2;1;1;1;1;1;2;2;3;2;1;1;1;1;1;1;1;2;1;1;1;1;1;1;3;4;1;1;25,5;25;12;25;40
2;1;3;3;2;3;4;2;5;2;3;5;3;2;2;4;3;2;3;3;5;5;3;4;2;2;1;1;3;1;2;42,75;68;23;40;40
1;1;1;1;1;2;3;3;4;3;2;2;1;1;1;2;1;2;1;2;1;2;1;2;1;1;1;2;3;2;2;27,25;30;12;20;47
1;1;2;1;1;3;4;2;1;1;2;2;1;1;1;1;1;1;1;1;1;1;1;1;1;1;1;1;2;1;1;21;22;15;20;27
1;1;2;1;1;3;4;2;1;1;2;2;1;1;1;1;1;1;1;1;1;1;1;1;1;1;1;1;2;1;1;21;22;15;20;27
1;1;1;1;1;1;3;3;1;1;1;3;1;1;1;3;2;1;3;2;3;2;1;2;1;1;1;1;2;1;3;27,5;40;10;20;40
1;1;2;2;1;2;4;3;1;1;1;4;2;1;2;4;3;1;4;3;4;3;2;3;1;1;1;1;2;0;3;33,25;55;15;30;33
3;1;3;2;4;1;3;1;1;2;1;3;3;1;2;2;3;2;2;2;2;2;1;2;1;1;4;5;4;5;2;46;38;23;50;73
3;3;3;3;4;2;3;1;1;2;1;4;3;3;3;3;3;2;3;3;3;3;1;3;1;1;4;3;5;5;4;59,5;50;30;65;93
2;2;3;3;3;2;2;1;1;2;1;3;3;3;3;2;2;2;3;3;2;3;1;2;1;1;4;3;4;5;3;53;42;25;65;80
2;1;1;4;1;1;1;1;3;1;2;5;1;1;1;4;4;2;4;4;4;4;5;4;2;2;1;3;1;3;1;35,75;73;17;20;33
1;1;1;4;1;1;1;1;2;1;2;3;1;1;1;3;2;2;3;3;4;4;3;3;2;2;1;3;1;3;1;31,25;57;15;20;33
1;2;1;1;1;1;4;1;5;2;1;5;1;1;1;4;3;1;4;5;5;3;2;4;2;2;1;1;1;1;1;29,75;67;12;20;20
5;5;2;2;2;2;2;1;1;1;2;2;2;2;2;2;2;2;2;2;2;2;2;2;2;2;2;2;2;2;1;35,75;40;30;40;33
1;1;1;1;1;0;1;1;2;2;1;1;0;0;1;1;1;1;1;1;1;1;1;1;1;1;1;1;1;1;1;14,5;20;8;10;20
3;3;3;3;3;4;2;4;3;3;1;4;3;3;3;4;3;3;3;5;5;5;4;5;2;2;5;4;5;0;1;54,25;75;32;70;40
1;1;1;1;1;1;4;1;1;2;2;4;1;1;1;5;5;4;5;5;5;5;5;5;4;4;1;1;1;1;1;35,75;93;10;20;20
1;1;1;4;1;1;1;1;1;2;1;1;2;1;1;1;1;1;1;2;1;1;1;1;1;1;1;2;2;1;1;22,25;22;15;25;27
1;1;1;2;2;1;4;1;1;1;1;2;1;1;1;1;1;1;2;2;1;1;1;1;1;1;2;3;3;2;2;27,5;25;13;25;47
1;1;1;1;1;1;1;1;1;1;1;1;1;1;1;1;1;1;1;1;1;1;1;1;1;1;1;1;2;1;1;19,25;20;10;20;27
1;2;1;3;1;5;4;1;1;1;1;3;1;1;1;1;1;1;1;2;2;2;1;2;1;1;1;1;2;1;1;24,75;30;22;20;27
1;1;1;5;1;5;1;1;1;2;1;1;2;1;2;1;1;1;1;1;1;3;1;1;1;1;1;1;1;1;1;24;23;23;30;20
1;1;1;1;1;2;4;2;1;1;2;1;1;1;1;1;1;1;1;1;1;1;1;1;1;1;2;1;3;1;1;22,5;20;12;25;33
1;1;1;1;1;5;3;1;1;1;1;1;2;1;2;1;1;1;1;1;1;1;1;1;1;1;1;1;1;1;1;21,75;20;17;30;20
2;1;1;2;1;5;4;1;2;2;1;1;1;1;1;3;3;2;1;1;1;1;1;1;1;1;1;1;5;1;1;28,75;28;20;20;47
1;1;1;3;1;5;4;1;1;1;1;1;1;1;1;1;1;1;1;1;1;1;1;1;1;1;1;1;1;1;1;20;20;20;20;20
1;1;1;1;1;5;4;2;1;1;1;5;1;1;1;5;3;3;3;3;5;3;1;3;2;2;1;1;1;1;1;30;63;17;20;20
1;4;1;2;1;4;4;1;1;1;1;5;1;2;2;1;1;2;1;1;1;1;1;1;1;1;1;1;5;1;1;31,75;28;22;30;47
1;1;1;4;1;5;4;2;1;1;4;1;1;1;1;1;1;1;1;1;1;1;1;1;1;1;1;1;3;1;1;23,75;20;22;20;33
5;1;1;4;1;5;3;4;1;1;1;4;1;1;1;1;1;1;2;1;1;4;1;2;1;1;1;1;1;1;1;25,25;33;28;20;20
1;3;2;2;1;5;5;1;1;1;1;2;1;1;1;1;1;2;2;2;1;1;1;1;1;1;1;1;4;1;1;27,5;27;23;20;40
