X,Y,position
29.447560404407938,4.9652741512324265,116.18865908516277
6.1101899516077465,13.410150588275279,49.000294070552265
15.041079087212879,17.608170110329088,85.39623179279411
30.800978997746007,10.871550017803806,130.12628792029716
14.600469629647733,6.58036349722361,65.90507860959033
28.554387384315294,9.611442386929085,120.52114853106086
31.1612259188886,4.956239506824914,121.39720372239572
8.4337931206885,0.8910127424006653,36.295240582473696
29.255905993761484,6.8933535377761865,117.88870216180229
17.257143664664635,10.655116840274786,81.62742426266863
25.23460420995296,9.963292051796872,109.26515138272076
7.136232948966389,4.8286822966638026,37.25766024616627
13.116496822734547,1.5283093340371172,50.191417665684575
22.480180612561828,15.30107032691973,109.38760167191307
21.90886130153852,6.251903372297693,90.90728516141783
26.009040402956213,19.532135450305727,127.63115064418758
11.656707842487702,6.500547252980635,56.568714603390156
28.3298170013004,9.463430842792487,118.69187850338515
12.18677190330824,15.80701026610217,73.6359648072288
27.91714195025112,10.931464068170774,119.68598142012813
27.39162498207799,14.326880341643053,126.14615082161777
28.70197647176661,14.173688122415678,130.0211313152111
15.8189984338689,2.9099788604486947,64.23138011169844
8.470813435106214,10.83350049890653,51.32538443721
22.733795000293355,14.621896993401826,107.56971887038453
17.425371292920662,4.4968393990584445,71.40262562262544
28.561078736099052,8.645297784647402,119.04573238927395
30.920334269608922,4.067408994050847,117.72469848699409
18.601650684743372,22.13915118332077,109.43228307309765
7.140789999391519,9.691587084815549,45.05197376830376
17.185140038896837,22.243526129745465,102.0316373167645
4.416499069596055,9.921967156628888,35.81603889224618
13.196500965318338,13.59211393695619,74.40977253287389
13.247071655151416,0.5175422073169816,49.041781348802495
8.83063160461095,15.280565213091704,61.83304729720972
10.53477112285681,23.109008214616154,80.91003885225189
21.31535887929672,12.595873253262772,102.11298291605952
22.275409581524986,8.126199090483263,95.06720018567385
30.142925265852785,1.1797462459818857,111.23506920977525
2.9173902182661644,1.670021864918028,16.692022715277158
3.9206665617848673,21.932103347470054,56.696557282141825
27.775327784546924,9.690944017942057,115.49055984713556
16.777641135353164,20.161997797015985,96.55998202550202
7.27466140865187,6.559675674975543,38.69274508075228
7.885552326913446,23.597181822723826,72.64024143405591
4.5034829217189385,1.9138412831762457,20.46970548212875
28.489062134214965,12.088226041691389,123.64323280240163
0.16929221415767381,14.77930304149268,27.26567876365625
30.698527683563803,3.95923447789466,116.73539665030906
10.661604307061351,22.275303337793954,79.97450278253953
2.206753559620128,6.986333244221007,23.285677685296736
5.246506065996259,23.90363890354814,64.87619090583432
1.1993002588671402,3.0505053844274155,12.426229193108968
10.320329867695591,9.157114704933594,54.993335603347944
25.038460550228045,9.564810846994853,107.67196222002038
4.713369588430054,12.07647294284538,41.568765966049256
2.8713624399338347,20.810925124189488,49.99486785759252
7.6506525344278735,23.54275908515011,72.50792707227605
30.70464046826993,18.88419495310118,144.21603447582842
13.693881116390962,20.235709700351176,85.93406954121662
24.52798651257733,3.293100237078539,94.667554372147
6.561086042974191,19.141672304809497,60.93954304092104
18.231715446703593,6.96623509377601,79.70329509827272
30.927688320561113,18.975168004420564,145.57736033247022
23.07969564490053,22.84029708034212,126.01673160460733
9.939387143616358,21.020003253599683,76.33505946730757
31.730399107044033,14.135830366844568,140.20981796951713
9.243827527954977,17.02231395124334,65.97144691977064
32.801590304306245,13.062932422900026,141.79830427736195
2.1797876275703847,1.110772424620274,12.676565185607187
16.152238721715598,5.030747580721606,70.20335287769753
17.42840669706658,23.778810383557815,106.18188774787278
18.151342850389995,3.007398585360313,70.89732047711857
3.6759307649019024,1.2419435724054129,18.771574099064857
27.881335347659263,18.088346897003397,131.0951883685295
3.697808065892951,10.078049233779044,32.94250227532699
13.552194681046544,7.257802161058541,62.35438454295389
23.941947707011355,16.147985749177156,114.30361896483707
17.824960473084985,5.867494080858354,76.76882631354273
27.92169254188481,7.025870402378387,114.64174125159752
2.2232952273326214,5.61361193173551,20.891323603389704
21.443112727221333,8.05689725771493,92.65701656863637
11.589706937291691,10.117588758319783,61.93362434636556
10.906329458811637,8.958971562222724,58.0076766999181
27.566992370741755,20.217415538013004,136.73672345583947
7.224150103557578,18.640364100144314,62.82812034261646
11.036715375438417,18.47652656155077,74.62439132624819
13.999365392190914,22.964903226088893,94.75718391144393
13.255522044131629,20.05841838900798,86.37069271596656
25.04612829906136,6.638398481235893,101.55253407501218
2.578534927464727,18.164265990761535,43.89516960312035
32.40536548341283,12.393492900493541,137.52596836551706
5.470866389555569,1.0933189467244615,24.620228757736964
14.12278466695103,12.119536508599605,75.06993358046611
12.696604529657913,14.149683388113795,72.3951546817214
28.43081162972104,11.920618222748464,123.77865306828707
20.12720221801821,16.21078399116154,102.0242949449045
28.374785850039615,0.5836084886943649,102.02092815688309
9.016975679600248,17.536338165314326,66.41465693262914
3.948005207341969,20.697188930776726,54.326770113385365
16.447619855852114,1.837127974524619,62.6285724915291
30.451139709212278,1.31793903022934,111.407650489585
18.628373121816132,7.68003753203009,82.5471748562157
9.88856404929104,4.5743110589169245,43.24371519049906
16.989609560575055,8.502280173110913,77.5613557882851
21.606321362682273,12.330590291276941,101.11719471296253
27.28826331075681,6.890021234627753,109.88551465075903
10.75083323354954,20.34652076459396,75.84339224805598
18.729577567596735,15.726053046732657,96.0831389746253
25.183660900615294,24.84538549510323,134.69709271762127
26.45523100315318,16.23729964938343,124.04321245529285
31.612921052203394,7.368373549618568,127.28284005860023
29.717442105615607,1.2273949829853747,107.96256614546617
0.7904588632427869,15.47071163551649,33.32755441970502
24.88282519604098,15.770376745021855,118.45043476459432
31.664818174303903,15.332259799903994,139.62853311625955
3.5396046231706384,7.707060103531665,29.499267879302465
17.956817439841764,6.278043930813023,76.47865350530057
8.966643278601758,10.704509590625443,50.07527209591759
29.59953297423463,12.435621405447378,128.28833416930502
28.048165192143514,5.546919855748578,109.56534214290883
23.348378238057055,6.140206588920705,97.03699084155447
12.579370671829855,1.7379928401754952,49.89072180259883
11.301227608814298,17.419479808871156,72.9306643017836
13.801964174109077,8.790232650815554,66.40748719499993
32.92134681112233,17.055961469020257,149.74798975739108
24.70271197836461,4.29639166922198,96.45535809614246
1.0039956656118436,10.975034862812644,27.236483964542387
11.393726673011768,19.308933082715722,78.42967019974385
18.25334086387441,0.22127299724088445,64.97873219691137
15.863431041006217,9.683121590553856,75.95668064678743
28.786090665081375,21.264825220652675,141.97159345540507
14.642589470808549,16.990720540400556,83.27525651653058
7.289399177694593,22.007977612581538,68.42179571545249
16.10232400357208,8.318976935487868,73.40290508276068
23.148191529251957,19.889090219410328,121.57719975449946
1.4935589015670938,14.122634321261232,33.150849111202824
17.269292204303806,16.72617220458124,93.25727072379344
31.412566951523676,1.555563133058263,113.66818388691445
27.42770224243119,6.191999000481468,108.5246110294001
18.384707204315852,10.840160903160362,86.59643784876482
9.745375190143989,5.381809051923731,46.03133281474634
16.593808949874795,4.99787227828421,69.07757201983513
27.466366604775313,18.9156886360603,134.82344548828556
15.080516597459066,22.200779795698928,95.04448753788131
24.84887761899638,14.749326788968245,115.4438712266921
6.005786688864577,0.513408596945103,24.579310616189805
4.505202174732722,24.54621937290364,63.2707407234812
17.656829966297824,24.553796735341958,108.78888531645613
6.718987696607753,16.88187790273885,54.326287909422405
14.496389669011878,8.061098898217784,65.40532718612342
24.99163087376337,1.9275243784778018,91.37873974065367
6.8349513965360424,4.29980381295679,32.768661075949424
25.480750227643355,9.152044872029952,108.45253527883594
8.602673829446363,24.78448466233681,78.67294872212544
16.851488797902384,9.675267862919219,78.07232124220917
30.11561847759308,18.290635648166408,141.52059398195487
7.177239443885854,10.603102223383287,47.266741422876834
22.361691023057908,18.74469376005749,115.08980869963055
19.363479234030432,9.236600068450729,89.05121986666049
13.913969204620205,17.048662711523278,81.92737462667478
23.58671326195275,3.2986927488413698,93.10460905679979
12.722914813768712,17.341954996725185,76.87531221325796
6.35155278225349,1.4431941948880893,28.0095035050651
6.859087351915698,22.652572167365143,67.8236889365228
16.800693787643027,24.679945554960796,106.5524784584093
15.56368831694829,6.336641987544558,67.76094847002574
30.554010316339216,4.522688560222019,119.86858465878089
10.923433281216045,8.424800443698802,57.695385036826956
14.701698464022375,9.239414806796365,70.88999952623823
5.652073140291491,3.922930146247175,27.79168659345939
13.16130658226538,24.82896986318252,92.36932372931307
12.913340793006661,6.97963911945842,60.59651529632743
27.655156319832866,7.5025315650481845,112.83588322141556
20.774867041422787,4.2211704884294345,83.55323443963404
9.543999566253394,4.48883255085557,43.77783083182582
4.403336611980142,2.1093761731213827,22.371309028075796
32.678882693893144,11.94812945132552,138.93326035348207
30.304616513406096,12.409613203150752,131.16898632341682
18.936169126980626,3.780312783875575,74.49024905384215
30.61863441276571,17.23652501386906,141.50677715217375
23.594797199114858,16.387320116397436,115.90046371102652
8.600517217623729,9.757190297512178,49.10843152550558
28.979896540837547,6.41729779224712,117.22548061348265
0.8554360350751222,6.704325498438088,20.882670231760045
18.41819919015431,5.284307447515496,76.14223340783063
6.819004484902257,16.224157056412864,57.7644591997534
24.813130341860802,7.733922088836118,105.39777125071066
8.36005627186131,12.794623548248833,54.98682049594697
8.139268598388485,14.247497526781927,56.56991583944198
17.033557989292557,6.410848238227057,75.08958892030483
30.57652164577078,1.7216052442126344,111.75712492353787
6.54679859210951,0.9217381329190782,27.79672561022199
7.118724298712308,16.503219227716468,57.218807586181036
5.206330467712175,22.811395732461655,62.83511632403521
16.934303326658537,3.099798875932372,66.38638204604591
1.1485867040314184,19.04415670667317,42.948943339467746
28.197538324512657,14.68310933430195,128.59113195598368
29.74026580047048,1.8161679150633936,109.89305887550182
11.50167211656567,18.61520590175971,75.94961860497929
27.303528686934474,20.930630959683285,137.01837424541793
21.408563097662995,14.366448707410918,103.70037400063437
30.06395211110733,22.706794577874774,148.2286848248872
16.38628249364866,6.102153127691332,70.8954098556205
2.2485534415806976,5.968541863969651,21.01797175732892
12.53328396981767,15.051550399483329,72.88867165848072
18.417722068110635,17.170423277615857,97.42612678749357
27.707283825149187,14.405170506351375,125.29063888270852
11.901025728571666,16.157822139105292,72.24872575922386
16.26269907410585,20.955914919040055,99.5658717362705
6.404655737269854,5.642862873465254,34.98169489642414
11.659769650464634,15.389334803293517,71.4141408155953
11.858050583058592,4.243001019376439,51.4195849532496
2.5937707729253914,11.181864060826358,33.08829843737966
10.459551141630628,16.65685647939898,69.13466527010829
3.3627839978731395,7.849048607616785,27.702523992326913
22.811847241945777,21.46962584872361,121.58050154644945
26.211030707724532,20.89647458772515,133.06355099287956
21.114422110573102,3.111950949601669,83.52656656756857
23.270087312000708,22.110655574287847,122.4564582942423
32.43121560383022,4.668859865830716,124.76056663371126
28.075805671543087,23.376310338900453,142.98304714931518
18.031368451909124,6.4809773552124055,77.13158318254781
31.22477225488068,22.964284381774487,153.61402163291743
24.779993179652543,0.11714783153185249,90.37890255369388
3.5279439322706536,21.475844952872038,54.37316604852091
5.783470577916257,11.94641575574015,44.55249156769047
10.931300054092345,6.521239896470071,53.38101401472109
16.002089546423,16.634190475694567,90.24429440365154
25.151652984250806,12.68170637471426,114.32460366326934
30.957206979923512,21.850593142665033,152.50406042008484
8.972729819190777,7.914839268171817,47.82288164456196
21.90040463386709,13.694943118106814,102.59539047531891
13.724485357425701,0.4468234266730847,51.084861084698495
12.369531153176084,12.298451479239727,68.24518866757872
14.962876738887687,1.6971953827227688,56.60531046577149
27.552770595728038,2.3986115800827794,104.09545425173633
32.00191609915647,6.926164248037914,126.65928953839537
8.905848128736112,13.154246611781497,57.571059756371845
14.016340402119623,9.001921772094887,68.46173586979168
4.186061247996151,21.881700889573448,57.04062146405662
28.69369178531433,0.6428888039073127,103.16266820337147
18.726276484836973,6.47852769628973,79.27888757722368
9.819551371708592,4.845477555821931,45.50722659686119
23.221852982595088,22.17432093009618,123.88312861638283
23.84004467334659,20.270451412558412,122.23499780210565
28.186737131923508,16.205934539336422,131.23645950774264
24.847779395106286,20.249138035726983,124.69624929835501
21.897186723180827,18.110655433742206,109.98994539401981
12.210045370044389,8.584912261181385,62.5231743354987
21.278145811853694,0.3547900896650358,78.17894709298352
15.947842993515104,10.790290842387327,77.30973827712273
2.5034590051303676,23.166241687357285,53.02299619609613
18.851126872529562,0.8720155674370622,69.14561344303486
3.4024434408277298,3.6097373258460186,19.570246293199755
4.498731441157746,6.745208977742911,32.63047979698378
0.8147356013145902,9.213348014485073,24.279115521421467
16.09489475522548,12.105877610389395,81.48694321059108
31.63447831907746,0.6860416836561634,113.96269251812643
13.126598219700437,4.016898147359435,56.301397532853954
20.498993461916044,10.98014123338453,94.1910831103111
13.022107493927967,10.762751510118587,69.33752147992834
7.793360001071373,0.5653019401820836,31.084983597192085
30.158947733175527,21.227001388450848,147.3204013913165
27.77884514311342,10.513609997174155,117.14189973012809
19.356446872160188,6.450655859789153,81.68646413199914
23.602890410706344,13.068138594888264,109.93490717699257
1.934994067132193,0.16590132836047933,9.951275432354933
0.9665500678668679,9.396966954964025,24.226227872045484
10.266646172667768,20.91789626646125,77.15674206460956
9.69570124134298,16.68388932387872,67.48702932337645
27.13059448062583,1.357150159291423,101.6174119736238
28.296470693968523,4.553391984157856,109.36707940548243
3.6477797392556734,4.470864884183201,24.13343334654263
28.983703342824665,18.16968337295216,137.48829647402374
31.02355384541655,13.861751267077285,136.48733603237545
16.206696284852214,6.113233272076421,68.65299175277367
10.563977787733748,12.100837379049231,61.91383081821758
29.616250361490845,12.030004961795148,127.29961238845519
26.15708603122445,18.652611383864524,127.9719392625657
28.43535441344741,6.653072485558417,114.21585523584858
8.364154621016088,4.444136186581085,41.24280842202292
23.01362262910609,13.911176718253138,108.34267522874661
27.653051450576477,3.257643446266753,104.65534297908687
13.40037655880738,11.550244951642508,70.40624806046195
21.516054595074987,12.028034569545651,98.47842720191151
6.27493805994666,24.58273567512263,67.37518404881314
27.334840062304973,8.848379049239913,113.66193430600164
1.1372953332847895,19.837777849207068,41.31990794382352
12.960146128540973,1.413079265857256,52.33629839233012
4.214698700888602,2.577146633578628,22.57916147957629
23.853004653032905,17.58685619826858,118.32362168948839
2.208748825391874,8.11553820993193,26.15550579165489
6.018277730211407,8.883500091355028,40.29215292111606
19.474120503161938,5.90192985003879,81.3999476675288
17.768292241732546,19.38916818455751,100.14442286885296
5.816424401790611,14.136884548081841,48.14566368119177
4.258212681141417,18.610451876915196,51.16989735179146
20.38628940269376,9.62377342254151,90.1424739177023
31.336025625239433,17.093338737209677,142.8976702375367
32.203544703529346,6.094761606943005,128.43275751933334
25.423754379865336,9.357949151468468,107.84516997753019
6.788464853667373,5.496101457597388,36.32042097511013
1.9050367863737852,11.094026275045326,28.377508865585007
31.943407438067116,9.098623559729822,132.29457410406326
2.8433290459722182,4.67789179542189,21.257995828958915
6.494408345493418,7.946150909441374,40.671773171182544
1.3054512210633122,9.340109393691105,23.333952083849507
11.916161254681636,16.981900412163682,73.21498125357438
30.197052622979776,4.9107754564455455,117.30043049121737
6.054815110697884,2.6855365721893483,29.707974660981154
9.446799338283988,9.94817300508133,53.44360157608769
32.37624056400855,3.6431975618764714,123.22743051285343
29.675833955475944,3.233573162223466,112.86338187032257
4.1943587188131914,17.553848913606124,49.33410759585406
21.807816416942053,15.418074395196557,106.90752813039444
23.096193222893998,0.7765691499654781,84.22262983282614
24.004166301096966,0.6099612931306869,86.43859820089227
17.029769166285334,18.702767798232717,96.99594344756541
24.57447678375223,18.968087495242514,123.57904588718633
25.114583009008935,23.366479670418766,133.15481236552247
24.032706108979045,20.81152557699325,122.48587190400009
2.183470284003153,0.6113310950956935,10.885726079802629
14.431919896820656,17.67560206951233,84.40946183277612
8.45434754733595,18.987465861736123,65.32739099040465
11.92498436130527,10.779707924177098,63.63861961702791
14.442680251725102,0.2900332131374833,54.4260921867984
28.82330385292725,19.81564976547665,138.8833229024876
15.014187106362353,3.1872981184255575,61.39852689851752
29.40872504231809,9.638483880366861,122.23508328300733
1.449094717625223,20.249850641073724,44.112609585634495
9.265624550294287,16.50031654214585,65.74088906678517
18.445765231432727,14.643523737316247,94.92598977711921
5.217565194702992,10.510340414672301,40.261177226549606
27.053241804793405,24.888465190293132,142.34540905263376
8.954281363497248,10.720491190775569,54.98478841951916
10.053245274706928,0.026141621301215,37.06576269434614
11.812141375448144,15.783090660073547,72.55054598376712
24.5800345697084,3.373487079869719,97.24999801501633
27.275706964424327,2.6785392008889577,103.65669456705724
29.766812327778602,17.07398305817819,138.22477726820347
28.092020080074157,20.359743652221507,137.80446158538706
7.650357335014493,13.715927051270056,53.86275441090629
1.2223055415455977,8.941041816334232,24.91938552251073
24.030285519616953,22.13853174485386,127.66913844877016
31.281698692601008,22.89636120327454,154.55563588741376
24.204499625213046,6.675237258433847,101.0917107760827
